🇨🇳山东地方台,#genre#
齐鲁频道,http://39.134.144.6:8089/PLTV/88888888/224/3221226045/index.m3u8
齐鲁频道,http://223.99.189.25:8089/shandong_cabletv.live.zte.com/223.99.253.7:8081/00/SNM/CHANNEL00000313/index.m3u8
齐鲁频道,http://tv.haoqu99.com/static/js/ckplayerx1/ckplayer.swf
齐鲁频道,http://39.137.76.32:8089/00/SNM/CHANNEL00000313/index.m3u8
齐鲁频道,https://livealone302.iqilu.com/iqilu/qlpd5555.m3u8
齐鲁频道,http://223.99.189.25:8089/shandong_cabletv.live.zte.com/223.99.253.7:8081/00/SNM/CHANNEL00000052/index.m3u8
齐鲁频道,http://39.134.144.6:8089/PLTV/88888888/224/3221225868/index.m3u8
山东生活,http://39.134.144.6:8089/PLTV/88888888/224/3221225841/index.m3u8
山东生活,http://223.99.189.25:8089/shandong_cabletv.live.zte.com/223.99.253.7:8081/00/SNM/CHANNEL00000055/index.m3u8
山东生活,http://223.99.189.25:8089/shandong_cabletv.live.zte.com/223.99.253.7:8081/00/SNM/CHANNEL00000336/index.m3u8

CCTV-1综合,http://gslbserv.itv.cmvideo.cn/index.m3u8?channel-id=ystenlive&Contentid=1000000001000018602&livemode=1&stbId=4
CCTV-1综合,http://gslbserv.itv.cmvideo.cn/index.m3u8?channel-id=ystenlive&Contentid=1000000001000021973&livemode=1&stbId=4
CCTV-1综合,http://gslbserv.itv.cmvideo.cn/index.m3u8?channel-id=ystenlive&Contentid=7780104586873900361&livemode=1&stbId=4
CCTV-1综合,http://223.99.189.25:8089/shandong_cabletv.live.zte.com/223.99.253.7:8081/00/SNM/CHANNEL00000311/index.m3u8
CCTV-1综合,http://223.99.189.25:8089/shandong_cabletv.live.zte.com/223.99.253.7:8081/00/SNM/CHANNEL00000001/index.m3u8
CCTV-1综合,http://39.134.144.6:8089/PLTV/88888888/224/3221225859/index.m3u8
CCTV-1综合,http://39.134.144.6:8089/PLTV/88888888/224/3221225919/index.m3u8
CCTV-3综艺,http://39.134.144.6:8089/PLTV/88888888/224/3221225889/index.m3u8
CCTV-3综艺,http://223.99.189.25:8089/shandong_cabletv.live.zte.com/223.99.253.7:8081/00/SNM/CHANNEL00000003/index.m3u8
CCTV-3综艺,http://223.99.189.25:8089/shandong_cabletv.live.zte.com/223.99.253.7:8081/00/SNM/CHANNEL00000359/index.m3u8
CCTV-3综艺,http://39.134.144.6:8089/PLTV/88888888/224/3221226338/index.m3u8
CCTV-5体育,http://39.134.144.6:8089/PLTV/88888888/224/3221226425/index.m3u8
CCTV-5体育,http://39.134.144.6:8089/PLTV/88888888/224/3221225901/index.m3u8
CCTV-5体育,http://223.99.189.25:8089/shandong_cabletv.live.zte.com/223.99.253.7:8081/00/SNM/CHANNEL00000360/index.m3u8
CCTV-5+体育,http://223.99.189.25:8089/shandong_cabletv.live.zte.com/223.99.253.7:8081/00/SNM/CHANNEL00000316/index.m3u8
CCTV-6电影,http://39.134.144.6:8089/PLTV/88888888/224/3221226427/index.m3u8
CCTV-6电影,http://gslbserv.itv.cmvideo.cn/index.m3u8?channel-id=ystenlive&Contentid=1000000001000016466&livemode=1&stbId=4
CCTV-6电影,http://39.134.144.6:8089/PLTV/88888888/224/3221225893/index.m3u8
CCTV-6电影,http://223.99.189.25:8089/shandong_cabletv.live.zte.com/223.99.253.7:8081/00/SNM/CHANNEL00000006/index.m3u8
CCTV-6电影,http://gslbserv.itv.cmvideo.cn/index.m3u8?channel-id=ystenlive&Contentid=1000000001000001737&livemode=1&stbId=4
CCTV-6电影,http://gslbserv.itv.cmvideo.cn/index.m3u8?channel-id=ystenlive&Contentid=6117099895556651277&livemode=1&stbId=4
CCTV-6电影,http://gslbserv.itv.cmvideo.cn/index.m3u8?channel-id=ystenlive&Contentid=5919402815101985320&livemode=1&stbId=4
CCTV-6电影,http://223.99.189.25:8089/shandong_cabletv.live.zte.com/223.99.253.7:8081/00/SNM/CHANNEL00000361/index.m3u8
CCTV-7国防军事,http://39.134.144.6:8089/PLTV/88888888/224/3221225887/index.m3u8
CCTV-7国防军事,http://39.134.144.6:8089/PLTV/88888888/224/3221225753/index.m3u8
CCTV-7国防军事,http://gslbserv.itv.cmvideo.cn/index.m3u8?channel-id=ystenlive&Contentid=7050628689018054317&livemode=1&stbId=4
CCTV-7国防军事,http://gslbserv.itv.cmvideo.cn/index.m3u8?channel-id=ystenlive&Contentid=1000000001000017218&livemode=1&stbId=4
CCTV-7国防军事,http://gslbserv.itv.cmvideo.cn/index.m3u8?channel-id=ystenlive&Contentid=1000000001000024341&livemode=1&stbId=4
CCTV-7国防军事,http://223.99.189.25:8089/shandong_cabletv.live.zte.com/223.99.253.7:8081/00/SNM/CHANNEL00000318/index.m3u8
CCTV-7国防军事,http://223.99.189.25:8089/shandong_cabletv.live.zte.com/223.99.253.7:8081/00/SNM/CHANNEL00000007/index.m3u8
CGTV-7国防军事,http://39.134.144.6:8089/PLTV/88888888/224/3221226401/index.m3u8
CCTV-8电视剧,http://gslbserv.itv.cmvideo.cn/index.m3u8?channel-id=ystenlive&Contentid=8845820895945979833&livemode=1&stbId=4
CCTV-8电视剧,http://39.134.144.6:8089/PLTV/88888888/224/3221225897/index.m3u8
CCTV-8电视剧,http://223.99.189.25:8089/shandong_cabletv.live.zte.com/223.99.253.7:8081/00/SNM/CHANNEL00000008/index.m3u8
CCTV-8电视剧,http://gslbserv.itv.cmvideo.cn/index.m3u8?channel-id=ystenlive&Contentid=8871488051501921127&livemode=1&stbId=4
CCTV-8电视剧,http://gslbserv.itv.cmvideo.cn/index.m3u8?channel-id=ystenlive&Contentid=1000000001000003736&livemode=1&stbId=4
CCTV-8电视剧,http://gslbserv.itv.cmvideo.cn/index.m3u8?channel-id=ystenlive&Contentid=1000000001000031433&livemode=1&stbId=4
CCTV-8电视剧,http://223.99.189.25:8089/shandong_cabletv.live.zte.com/223.99.253.7:8081/00/SNM/CHANNEL00000362/index.m3u8
CCTV-8电视剧,http://39.134.144.6:8089/PLTV/88888888/224/3221226428/index.m3u8
CCTV-8电视剧,http://39.134.144.6:8089/PLTV/88888888/224/3221226429/index.m3u8
CCTV-9纪录,http://39.134.144.6:8089/PLTV/88888888/224/3221225759/index.m3u8
CCTV-9纪录,http://223.99.189.25:8089/shandong_cabletv.live.zte.com/223.99.253.7:8081/00/SNM/CHANNEL00000319/index.m3u8
CCTV-10科教,http://39.134.144.6:8089/PLTV/88888888/224/3221225761/index.m3u8
CCTV-10科教,http://gslbserv.itv.cmvideo.cn/index.m3u8?channel-id=ystenlive&Contentid=1000000001000026367&livemode=1&stbId=4
CCTV-10科教,http://gslbserv.itv.cmvideo.cn/index.m3u8?channel-id=ystenlive&Contentid=1000000001000023734&livemode=1&stbId=4
CCTV-10科教,http://223.99.189.25:8089/shandong_cabletv.live.zte.com/223.99.253.7:8081/00/SNM/CHANNEL00000321/index.m3u8
CCTV-13新闻,http://39.134.144.6:8089/PLTV/88888888/224/3221225949/index.m3u8
CCTV-13新闻,http://223.99.189.25:8089/shandong_cabletv.live.zte.com/223.99.253.7:8081/00/SNM/CHANNEL00000345/index.m3u8
CCTV-13新闻,http://39.134.144.6:8089/PLTV/88888888/224/3221226328/index.m3u8
CCTV-13新闻,http://gslbserv.itv.cmvideo.cn/index.m3u8?channel-id=ystenlive&Contentid=1000000002000021303&livemode=1&stbId=4
CCTV-13新闻,http://gslbserv.itv.cmvideo.cn/index.m3u8?channel-id=ystenlive&Contentid=6918130250570453526&livemode=1&stbId=4
CCTV-13新闻,http://223.99.189.25:8089/shandong_cabletv.live.zte.com/223.99.253.7:8081/00/SNM/CHANNEL00000013/index.m3u8
CCTV-11戏曲,http://39.134.144.6:8089/PLTV/88888888/224/3221226407/index.m3u8
CCTV-11戏曲,http://39.134.144.6:8089/PLTV/88888888/224/3221225928/index.m3u8
CCTV-11戏曲,http://223.99.189.25:8089/shandong_cabletv.live.zte.com/223.99.253.7:8081/00/SNM/CHANNEL00000011/index.m3u8
CCTV-11戏曲,http://223.99.189.25:8089/shandong_cabletv.live.zte.com/223.99.253.7:8081/00/SNM/CHANNEL00000344/index.m3u8
CCTV-12社会与法,http://39.134.144.6:8089/PLTV/88888888/224/3221225763/index.m3u8
CCTV-12社会与法,http://223.99.189.25:8089/shandong_cabletv.live.zte.com/223.99.253.7:8081/00/SNM/CHANNEL00000012/index.m3u8
CCTV-12社会与法,http://223.99.189.25:8089/shandong_cabletv.live.zte.com/223.99.253.7:8081/00/SNM/CHANNEL00000322/index.m3u8
CCTV-14少儿,http://39.134.144.6:8089/PLTV/88888888/224/3221225765/index.m3u8
CCTV-14少儿,http://223.99.189.25:8089/shandong_cabletv.live.zte.com/223.99.253.7:8081/00/SNM/CHANNEL00000323/index.m3u8
CCTV-14少儿,http://39.134.144.6:8089/PLTV/88888888/224/3221226311/index.m3u8
CCTV-15音乐,http://39.134.144.6:8089/PLTV/88888888/224/3221225941/index.m3u8
CCTV-15音乐,http://223.99.189.25:8089/shandong_cabletv.live.zte.com/223.99.253.7:8081/00/SNM/CHANNEL00000015/index.m3u8
CCTV-15音乐,http://223.99.189.25:8089/shandong_cabletv.live.zte.com/223.99.253.7:8081/00/SNM/CHANNEL00000346/index.m3u8
CCTV-15音乐,http://39.134.144.6:8089/PLTV/88888888/224/3221226409/index.m3u8

CCTV,#genre#
CCTV1,http://dbiptv.sn.chinamobile.com/PLTV/88888890/224/3221226231/index.m3u8
CCTV2,http://dbiptv.sn.chinamobile.com/PLTV/88888890/224/3221226195/index.m3u8
CCTV2,http://dbiptv.sn.chinamobile.com/PLTV/88888890/224/3221226224/index.m3u8
CCTV3,http://39.134.66.110/PLTV/88888888/224/3221225799/index.m3u8
CCTV4,http://dbiptv.sn.chinamobile.com/PLTV/88888890/224/3221226191/index.m3u8
CCTV4,http://dbiptv.sn.chinamobile.com/PLTV/88888890/224/3221226223/index.m3u8
CCTV5,http://39.134.66.110/PLTV/88888888/224/3221225818/index.m3u8
CCTV5+,http://dbiptv.sn.chinamobile.com/PLTV/88888890/224/3221226221/index.m3u8
CCTV6,http://39.134.66.110/PLTV/88888888/224/3221225814/index.m3u8
CCTV7,http://dbiptv.sn.chinamobile.com/PLTV/88888890/224/3221226192/index.m3u8
CCTV8,http://39.134.66.110/PLTV/88888888/224/3221225795/index.m3u8
CCTV9,http://dbiptv.sn.chinamobile.com/PLTV/88888890/224/3221226197/index.m3u8
CCTV10,http://dbiptv.sn.chinamobile.com/PLTV/88888890/224/3221226189/index.m3u8
CCTV11,http://219.140.56.34:3333/tsfile/live/1011_1.m3u8
CCTV12,http://dbiptv.sn.chinamobile.com/PLTV/88888890/224/3221226190/index.m3u8
CCTV13,http://39.134.67.99/PLTV/88888888/224/3221225812/index.m3u8
CCTV13,http://39.135.138.60:18890/PLTV/88888910/224/3221225638/index.m3u8
CCTV14,http://39.134.66.66/PLTV/88888888/224/3221225674/index.m3u8
CCTV15,http://39.135.138.60:18890/PLTV/88888910/224/3221225641/index.m3u8
CCTV16,http://39.135.138.60:18890/TVOD/88888910/224/3221226230/index.m3u8
CCTV16,http://39.135.138.60:18890/TVOD/88888910/224/3221226233/index.m3u8
CCTV11,http://dbiptv.sn.chinamobile.com/PLTV/88888890/224/3221226240/index.m3u8
CCTV13,http://dbiptv.sn.chinamobile.com/PLTV/88888890/224/3221226233/index.m3u8
CCTV14,http://dbiptv.sn.chinamobile.com/PLTV/88888890/224/3221226193/index.m3u8
CCTV17,http://dbiptv.sn.chinamobile.com/PLTV/88888890/224/3221226198/index.m3u8
CCTV1,http://39.134.66.110/PLTV/88888888/224/3221225816/index.m3u8
CCTV5+,http://39.134.66.110/PLTV/88888888/224/3221225507/index.m3u8
CCTV7,http://39.134.66.110/PLTV/88888888/224/3221225671/index.m3u8
CCTV9,http://39.134.66.110/PLTV/88888888/224/3221225676/index.m3u8
CCTV10,http://39.134.66.110/PLTV/88888888/224/3221225677/index.m3u8
CCTV12,http://39.134.66.110/PLTV/88888888/224/3221225669/index.m3u8
CCTV14,http://39.134.66.110/PLTV/88888888/224/3221225674/index.m3u8
CCTV16,http://39.134.66.110/PLTV/88888888/224/3221225893/index.m3u8
CCTV17,http://39.134.66.110/PLTV/88888888/224/3221225708/index.m3u8
CCTV1,http://39.134.66.48/PLTV/88888888/224/3221225816/index.m3u8
CCTV1,http://39.134.67.226/PLTV/88888888/224/3221225816/index.m3u8
CCTV1,http://39.134.65.179/PLTV/88888888/224/3221225816/index.m3u8
CCTV1,http://39.134.65.181/PLTV/88888888/224/3221225816/index.m3u8
CCTV3,http://39.134.66.46/PLTV/88888888/224/3221225799/index.m3u8
CCTV3,http://39.134.67.226/PLTV/88888888/224/3221225799/index.m3u8
CCTV3,http://39.134.65.179/PLTV/88888888/224/3221225799/index.m3u8
CCTV3,http://39.134.65.181/PLTV/88888888/224/3221225799/index.m3u8
CCTV3,http://39.134.65.173/PLTV/88888888/224/3221225799/index.m3u8
CCTV3,http://39.134.65.183/PLTV/88888888/224/3221225799/index.m3u8
CCTV3,http://39.134.65.175/PLTV/88888888/224/3221225799/index.m3u8
CCTV5,http://39.134.67.226/PLTV/88888888/224/3221225818/index.m3u8
CCTV5,http://39.134.65.179/PLTV/88888888/224/3221225818/index.m3u8
CCTV5,http://39.134.65.181/PLTV/88888888/224/3221225818/index.m3u8
CCTV5,http://39.134.65.173/PLTV/88888888/224/3221225818/index.m3u8
CCTV5+,http://39.134.66.66/PLTV/88888888/224/3221225507/index.m3u8
CCTV5+,http://39.134.65.181/PLTV/88888888/224/3221225507/index.m3u8
CCTV5+,http://39.134.65.173/PLTV/88888888/224/3221225507/index.m3u8
CCTV5+,http://39.134.65.183/PLTV/88888888/224/3221225507/index.m3u8
CCTV5+,http://39.134.65.175/PLTV/88888888/224/3221225507/index.m3u8
CCTV6,http://39.134.65.181/PLTV/88888888/224/3221225814/index.m3u8
CCTV6,http://39.134.65.173/PLTV/88888888/224/3221225814/index.m3u8
CCTV6,http://39.134.65.183/PLTV/88888888/224/3221225814/index.m3u8
CCTV6,http://39.134.65.175/PLTV/88888888/224/3221225814/index.m3u8
CCTV6,http://39.134.65.177/PLTV/88888888/224/3221225814/index.m3u8
CCTV7,http://39.134.65.179/PLTV/88888888/224/3221225671/index.m3u8
CCTV7,http://39.134.65.164/PLTV/88888888/224/3221225671/index.m3u8
CCTV7,http://39.134.65.181/PLTV/88888888/224/3221225671/index.m3u8
CCTV7,http://39.134.65.173/PLTV/88888888/224/3221225671/index.m3u8
CCTV7,http://39.134.65.183/PLTV/88888888/224/3221225671/index.m3u8
CCTV7,http://39.134.66.2/PLTV/88888888/224/3221225671/index.m3u8
CCTV8,http://39.134.65.181/PLTV/88888888/224/3221225795/index.m3u8
CCTV8,http://39.134.65.173/PLTV/88888888/224/3221225795/index.m3u8
CCTV8,http://39.134.65.183/PLTV/88888888/224/3221225795/index.m3u8
CCTV8,http://39.134.65.175/PLTV/88888888/224/3221225795/index.m3u8
CCTV8,http://39.134.65.177/PLTV/88888888/224/3221225795/index.m3u8
CCTV9,http://39.134.66.46/PLTV/88888888/224/3221225676/index.m3u8
CCTV9,http://39.134.65.179/PLTV/88888888/224/3221225676/index.m3u8
CCTV9,http://39.134.65.181/PLTV/88888888/224/3221225676/index.m3u8
CCTV9,http://39.134.65.166/PLTV/88888888/224/3221225676/index.m3u8
CCTV9,http://39.134.65.183/PLTV/88888888/224/3221225676/index.m3u8
CCTV9,http://39.134.65.173/PLTV/88888888/224/3221225676/index.m3u8
CCTV10,http://39.134.65.179/PLTV/88888888/224/3221225677/index.m3u8
CCTV10,http://39.134.65.164/PLTV/88888888/224/3221225677/index.m3u8
CCTV10,http://39.134.65.166/PLTV/88888888/224/3221225677/index.m3u8
CCTV10,http://39.134.65.181/PLTV/88888888/224/3221225677/index.m3u8
CCTV10,http://39.134.65.183/PLTV/88888888/224/3221225677/index.m3u8
CCTV10,http://39.134.66.66/PLTV/88888888/224/3221225677/index.m3u8
CCTV12,http://39.134.66.66/PLTV/88888888/224/3221225669/index.m3u8
CCTV12,http://39.134.65.179/PLTV/88888888/224/3221225669/index.m3u8
CCTV12,http://39.134.65.164/PLTV/88888888/224/3221225669/index.m3u8
CCTV12,http://39.134.65.181/PLTV/88888888/224/3221225669/index.m3u8
CCTV12,http://39.134.65.166/PLTV/88888888/224/3221225669/index.m3u8
CCTV12,http://39.134.65.173/PLTV/88888888/224/3221225669/index.m3u8
CCTV14,http://39.134.65.179/PLTV/88888888/224/3221225674/index.m3u8
CCTV14,http://39.134.65.164/PLTV/88888888/224/3221225674/index.m3u8
CCTV14,http://39.134.65.181/PLTV/88888888/224/3221225674/index.m3u8
CCTV14,http://39.134.65.183/PLTV/88888888/224/3221225674/index.m3u8
CCTV14,http://39.134.65.173/PLTV/88888888/224/3221225674/index.m3u8
CCTV17,http://39.134.66.46/PLTV/88888888/224/3221225708/index.m3u8
CCTV17,http://39.134.65.181/PLTV/88888888/224/3221225708/index.m3u8
CCTV17,http://39.134.65.183/PLTV/88888888/224/3221225708/index.m3u8
CCTV2,http://219.140.56.34:3333/tsfile/live/0002_1.m3u8
CCTV4,http://219.140.56.34:3333/tsfile/live/1004_1.m3u8
CETV3,http://dbiptv.sn.chinamobile.com/PLTV/88888890/224/3221226226/index.m3u8
CETV4,http://dbiptv.sn.chinamobile.com/PLTV/88888890/224/3221226225/index.m3u8
风云剧场,http://42.176.185.28:9901/tsfile/live/1031_1.m3u8
风云音乐,http://42.176.185.28:9901/tsfile/live/1024_1.m3u8
女性时尚,http://dbiptv.sn.chinamobile.com/PLTV/88888890/224/3221226237/index.m3u8
发现之旅,http://dbiptv.sn.chinamobile.com/PLTV/88888890/224/3221226235/index.m3u8
老故事,http://dbiptv.sn.chinamobile.com/PLTV/88888890/224/3221226236/index.m3u8
卫视,#genre#
安徽卫视,http://39.134.66.110/PLTV/88888888/224/3221225925/index.m3u8
北京卫视,http://39.134.66.110/PLTV/88888888/224/3221225931/index.m3u8
东方卫视,http://39.134.66.110/PLTV/88888888/224/3221225942/index.m3u8
东南卫视,http://39.134.66.110/PLTV/88888888/224/3221225950/index.m3u8
广东卫视,http://39.134.66.110/PLTV/88888888/224/3221225966/index.m3u8
海南卫视,http://39.134.66.110/PLTV/88888888/224/3221225978/index.m3u8
河北卫视,http://39.134.66.110/PLTV/88888888/224/3221225961/index.m3u8
河南卫视,http://39.134.66.110/PLTV/88888888/224/3221225988/index.m3u8
黑龙江卫视,http://39.134.66.110/PLTV/88888888/224/3221225985/index.m3u8
湖北卫视,http://39.134.66.110/PLTV/88888888/224/3221225975/index.m3u8
湖南卫视,http://39.134.66.110/PLTV/88888888/224/3221225977/index.m3u8
吉林卫视,http://39.134.66.110/PLTV/88888888/224/3221225981/index.m3u8
江苏卫视,http://39.134.66.110/PLTV/88888888/224/3221225938/index.m3u8
江西卫视,http://39.134.66.110/PLTV/88888888/224/3221225935/index.m3u8
山东卫视,http://39.134.66.110/PLTV/88888888/224/3221225952/index.m3u8
深圳卫视,http://39.134.66.110/PLTV/88888888/224/3221225974/index.m3u8
四川卫视,http://39.134.66.110/PLTV/88888888/224/3221225970/index.m3u8
天津卫视,http://39.134.66.110/PLTV/88888888/224/3221225972/index.m3u8
浙江卫视,http://39.134.66.110/PLTV/88888888/224/3221225959/index.m3u8
重庆卫视,http://39.134.66.110/PLTV/88888888/224/3221225963/index.m3u8
湖南卫视,http://39.134.65.166/PLTV/88888888/224/3221225506/index.m3u8
湖南卫视,http://39.134.65.181/PLTV/88888888/224/3221225506/index.m3u8
江苏卫视,http://39.134.65.181/PLTV/88888888/224/3221225503/index.m3u8
浙江卫视,http://39.134.65.179/PLTV/88888888/224/3221225514/index.m3u8
浙江卫视,http://39.134.65.173/PLTV/88888888/224/3221225514/index.m3u8
浙江卫视,http://39.134.65.175/PLTV/88888888/224/3221225514/index.m3u8
东方卫视,http://39.134.65.179/PLTV/88888888/224/3221225672/index.m3u8
东方卫视,http://39.134.65.164/PLTV/88888888/224/3221225672/index.m3u8
东方卫视,http://39.134.65.173/PLTV/88888888/224/3221225672/index.m3u8
东方卫视,http://39.134.65.175/PLTV/88888888/224/3221225672/index.m3u8
深圳卫视,http://39.134.65.164/PLTV/88888888/224/3221225668/index.m3u8
深圳卫视,http://39.134.65.166/PLTV/88888888/224/3221225668/index.m3u8
北京卫视,http://39.134.65.179/PLTV/88888888/224/3221225678/index.m3u8
北京卫视,http://39.134.65.164/PLTV/88888888/224/3221225678/index.m3u8
北京卫视,http://39.134.65.166/PLTV/88888888/224/3221225678/index.m3u8
天津卫视,http://39.134.65.166/PLTV/88888888/224/3221225665/index.m3u8
天津卫视,http://39.134.66.66/PLTV/88888888/224/3221225665/index.m3u8
湖北卫视,http://39.134.65.164/PLTV/88888888/224/3221225569/index.m3u8
湖北卫视,http://39.134.66.66/PLTV/88888888/224/3221225569/index.m3u8
贵州卫视,http://39.134.65.149/PLTV/88888888/224/3221225974/index.m3u8
浙江卫视,http://39.134.65.208/PLTV/88888888/224/3221225514/index.m3u8
浙江卫视,http://39.134.66.2/PLTV/88888888/224/3221225514/index.m3u8
江苏卫视,http://39.134.65.208/PLTV/88888888/224/3221225503/index.m3u8
湖南卫视,http://39.134.65.208/PLTV/88888888/224/3221225506/index.m3u8
湖南卫视,http://39.134.66.2/PLTV/88888888/224/3221225506/index.m3u8
东方卫视,http://39.134.65.208/PLTV/88888888/224/3221225672/index.m3u8
湖北卫视,http://dbiptv.sn.chinamobile.com/PLTV/88888890/224/3221226194/index.m3u8
安徽卫视,http://dbiptv.sn.chinamobile.com/PLTV/88888890/224/3221226196/index.m3u8
浙江卫视,http://dbiptv.sn.chinamobile.com/PLTV/88888890/224/3221226199/index.m3u8
江苏卫视,http://dbiptv.sn.chinamobile.com/PLTV/88888890/224/3221226200/index.m3u8
辽宁卫视,http://dbiptv.sn.chinamobile.com/PLTV/88888890/224/3221226201/index.m3u8
辽宁卫视,http://dbiptv.sn.chinamobile.com/PLTV/88888890/224/3221226210/index.m3u8
重庆卫视,http://dbiptv.sn.chinamobile.com/PLTV/88888890/224/3221226202/index.m3u8
安徽卫视,http://dbiptv.sn.chinamobile.com/PLTV/88888890/224/3221226203/index.m3u8
天津卫视,http://dbiptv.sn.chinamobile.com/PLTV/88888890/224/3221226204/index.m3u8
深圳卫视,http://dbiptv.sn.chinamobile.com/PLTV/88888890/224/3221226205/index.m3u8
湖北卫视,http://dbiptv.sn.chinamobile.com/PLTV/88888890/224/3221226206/index.m3u8
山东卫视,http://dbiptv.sn.chinamobile.com/PLTV/88888890/224/3221226209/index.m3u8
湖南卫视,http://dbiptv.sn.chinamobile.com/PLTV/88888890/224/3221226211/index.m3u8
西藏卫视,http://dbiptv.sn.chinamobile.com/PLTV/88888890/224/3221226212/index.m3u8
兵团卫视,http://dbiptv.sn.chinamobile.com/PLTV/88888890/224/3221226214/index.m3u8
黑龙江卫视,http://dbiptv.sn.chinamobile.com/PLTV/88888890/224/3221226215/index.m3u8
广东卫视,http://dbiptv.sn.chinamobile.com/PLTV/88888890/224/3221226216/index.m3u8
东方卫视,http://dbiptv.sn.chinamobile.com/PLTV/88888890/224/3221226217/index.m3u8
大湾区卫视,http://dbiptv.sn.chinamobile.com/PLTV/88888890/224/3221226218/index.m3u8
厦门卫视,http://dbiptv.sn.chinamobile.com/PLTV/88888890/224/3221226219/index.m3u8
延边卫视,http://dbiptv.sn.chinamobile.com/PLTV/88888890/224/3221226220/index.m3u8
北京卫视,http://dbiptv.sn.chinamobile.com/PLTV/88888890/224/3221226222/index.m3u8
农林卫视,http://dbiptv.sn.chinamobile.com/PLTV/88888890/224/3221226229/index.m3u8
康巴卫视,http://dbiptv.sn.chinamobile.com/PLTV/88888890/224/3221226234/index.m3u8
安多卫视,http://dbiptv.sn.chinamobile.com/PLTV/88888890/224/3221226228/index.m3u8
肥羊BESTV,#genre#
CCTV1,https://live.goodiptv.club/api/bestv.php?id=cctv1hd8m/8000000
CCTV2,https://live.goodiptv.club/api/bestv.php?id=cctv2hd8m/8000000
CCTV3,https://live.goodiptv.club/api/bestv.php?id=cctv38m/8000000
CCTV4,https://live.goodiptv.club/api/bestv.php?id=cctv4hd8m/8000000
CCTV5,https://live.goodiptv.club/api/bestv.php?id=cctv58m/8000000
CCTV5+,https://live.goodiptv.club/api/bestv.php?id=cctv5phd8m/8000000
CCTV6,https://live.goodiptv.club/api/bestv.php?id=cctv6hd8m/8000000
CCTV7,https://live.goodiptv.club/api/bestv.php?id=cctv7hd8m/8000000
CCTV8,https://live.goodiptv.club/api/bestv.php?id=cctv8hd8m/8000000
CCTV9,https://live.goodiptv.club/api/bestv.php?id=cctv9hd8m/8000000
CCTV10,https://live.goodiptv.club/api/bestv.php?id=cctv10hd8m/8000000
CCTV11,https://live.goodiptv.club/api/bestv.php?id=cctv11hd8m/8000000
CCTV12,https://live.goodiptv.club/api/bestv.php?id=cctv12hd8m/8000000
CCTV13,https://live.goodiptv.club/api/bestv.php?id=cctv13xwhd8m/8000000
CCTV14,https://live.goodiptv.club/api/bestv.php?id=cctvsehd8m/8000000
CCTV15,https://live.goodiptv.club/api/bestv.php?id=cctv15hd8m/8000000
CCTV16,https://live.goodiptv.club/api/bestv.php?id=cctv16hd8m/8000000
CCTV17,https://live.goodiptv.club/api/bestv.php?id=cctv17hd8m/8000000
江苏卫视,https://live.goodiptv.club/api/bestv.php?id=jswshd8m/8000000
广西卫视,https://live.goodiptv.club/api/bestv.php?id=gxwshd8m/8000000
四川卫视,https://live.goodiptv.club/api/bestv.php?id=scwshd/8000000
湖南卫视,https://live.goodiptv.club/api/bestv.php?id=hunanwshd8m/8000000
浙江卫视,https://live.goodiptv.club/api/bestv.php?id=zjwshd8m/8000000
东方卫视,https://live.goodiptv.club/api/bestv.php?id=dfwshd8m/8000000
北京卫视,https://live.goodiptv.club/api/bestv.php?id=bjwshd8m/8000000
天津卫视,https://live.goodiptv.club/api/bestv.php?id=tjwshd8m/8000000
辽宁卫视,https://live.goodiptv.club/api/bestv.php?id=lnwshd8m/8000000
安徽卫视,https://live.goodiptv.club/api/bestv.php?id=ahwshd8m/8000000
黑龙江卫视,https://live.goodiptv.club/api/bestv.php?id=hljwshd8m/8000000
广东卫视,https://live.goodiptv.club/api/bestv.php?id=gdwshd8m/8000000
深圳卫视,https://live.goodiptv.club/api/bestv.php?id=szwshd8m/8000000
湖北卫视,https://live.goodiptv.club/api/bestv.php?id=hubeiws8m/8000000
吉林卫视,https://live.goodiptv.club/api/bestv.php?id=jlwshd8m/8000000
山东卫视,https://live.goodiptv.club/api/bestv.php?id=sdws8m/8000000
江西卫视,https://live.goodiptv.club/api/bestv.php?id=jxws8m/8000000
河南卫视,https://live.goodiptv.club/api/bestv.php?id=hnwshd8m/8000000
河北卫视,https://live.goodiptv.club/api/bestv.php?id=hbwshd8m/8000000
甘肃卫视,https://live.goodiptv.club/api/bestv.php?id=gswshd8m/8000000
重庆卫视,https://live.goodiptv.club/api/bestv.php?id=cqws8m/8000000
东南卫视,https://live.goodiptv.club/api/bestv.php?id=dnwshd8m/8000000
云南卫视,https://live.goodiptv.club/api/bestv.php?id=ynwshd8m/8000000
贵州卫视,https://live.goodiptv.club/api/bestv.php?id=gzwshd8m/8000000
海南卫视,https://live.goodiptv.club/api/bestv.php?id=hainanwshd8m/8000000
欢笑剧场,https://live.goodiptv.club/api/bestv.php?id=hxjc8m/8000000
劲爆体育,https://live.goodiptv.club/api/bestv.php?id=jbtyhd8m/8000000
快乐垂钓,https://live.goodiptv.club/api/bestv.php?id=klcd8m/8000000
金鹰纪实,https://live.goodiptv.club/api/bestv.php?id=jyjs8m/8000000
戏曲精选,https://live.goodiptv.club/api/bestv.php?id=xqjx8m/8000000
上海第一财经,https://live.goodiptv.club/api/bestv.php?id=dycjhd8m/8000000
上视新闻,https://live.goodiptv.club/api/bestv.php?id=xwzhhd8m/8000000
上海都市,https://live.goodiptv.club/api/bestv.php?id=dshd8m/8000000
上海纪实,https://live.goodiptv.club/api/bestv.php?id=jspdhd/4000000
东方影视,https://live.goodiptv.club/api/bestv.php?id=dfyshd8m/8000000
五星体育,https://live.goodiptv.club/api/bestv.php?id=wxtyhd8m/8000000
上视外语,https://live.goodiptv.club/api/bestv.php?id=icshd8m/8000000
七彩戏剧,https://live.goodiptv.club/api/bestv.php?id=qcxjhd8m/8000000
上海教育,https://live.goodiptv.club/api/bestv.php?id=setvhd/8000000
全纪实,https://live.goodiptv.club/api/bestv.php?id=qjshd8m/8000000
生活时尚,https://live.goodiptv.club/api/bestv.php?id=shss8m/8000000
新视觉,https://live.goodiptv.club/api/bestv.php?id=xsjhd8m/8000000
游戏风云,https://live.goodiptv.club/api/bestv.php?id=yxfy8m/8000000
热门综艺,https://live.goodiptv.club/api/bestv.php?id=rmzy8m/8000000
超级体育,https://live.goodiptv.club/api/bestv.php?id=qcsj8m/8000000
健康养生,https://live.goodiptv.club/api/bestv.php?id=jkys8m/8000000
百变课堂,https://live.goodiptv.club/api/bestv.php?id=bbkt8m/8000000
看天下精选,https://live.goodiptv.club/api/bestv.php?id=ktxjx8m/8000000
华语影院,https://live.goodiptv.club/api/bestv.php?id=hyyy8m/8000000
电竞天堂,https://live.goodiptv.club/api/bestv.php?id=djtt8m/8000000
青春动漫,https://live.goodiptv.club/api/bestv.php?id=qcdm8m/8000000
宝宝动画,https://live.goodiptv.club/api/bestv.php?id=bbdh8m/8000000
星光影院,https://live.goodiptv.club/api/bestv.php?id=xgyy8m/8000000
谍战剧场,https://live.goodiptv.club/api/bestv.php?id=dzjc8m/8000000
全球大片,https://live.goodiptv.club/api/bestv.php?id=qqdp8m/8000000
热门剧场,https://live.goodiptv.club/api/bestv.php?id=rmjc8m/8000000
陶瓷高清,https://live.goodiptv.club/api/bestv.php?id=taocihd/8000000
中国教育-1,https://live.goodiptv.club/api/bestv.php?id=zgjy1t8m/8000000
中国教育-4,https://live.goodiptv.club/api/bestv.php?id=zgjy4hd8m/8000000
卡酷少儿,https://live.goodiptv.club/api/bestv.php?id=kkse8m/8000000
纪实科教,https://live.goodiptv.club/api/bestv.php?id=dajs8m/8000000
茶频道,https://live.goodiptv.club/api/bestv.php?id=cpdhdavs8m/8000000
足球高清,https://live.goodiptv.club/api/bestv.php?id=zqpd8m/8000000
炫动卡通,https://live.goodiptv.club/api/bestv.php?id=hhxd8m/8000000
东方财经,https://live.goodiptv.club/api/bestv.php?id=dfcjhd8m/8000000
都市剧场,https://live.goodiptv.club/api/bestv.php?id=dsjc8m/8000000
动漫秀场,https://live.goodiptv.club/api/bestv.php?id=dmxc8m/8000000
法治天地,https://live.goodiptv.club/api/bestv.php?id=fztd8m/8000000
金色学堂,https://live.goodiptv.club/api/bestv.php?id=jingsepd8m/8000000
魅力足球,https://live.goodiptv.club/api/bestv.php?id=mlyyhd8m/8000000
肥羊CQYX,#genre#
欢笑剧场4K,https://live.goodiptv.club/api/cqyx.php?id=hxjc_4K
CCTV-4K,https://live.goodiptv.club/api/cqyx.php?id=CCTV4K
CCTV16-4K,https://live.goodiptv.club/api/cqyx.php?id=CCTV16_4K
4K60PSDR-H264-AAC测试,http://159.75.85.63:5680/d/ad/h264/playad.m3u8
4K60PHLG-HEVC-EAC3测试,http://159.75.85.63:5680/d/ad/playad.m3u8
CCTV1综合,https://live.goodiptv.club/api/cqyx.php?id=cctv1HD
CCTV2财经,https://live.goodiptv.club/api/cqyx.php?id=cctv2HD
CCTV3综艺,https://live.goodiptv.club/api/cqyx.php?id=cctv3HD
CCTV4中文国际,https://live.goodiptv.club/api/cqyx.php?id=cctv4HD
CCTV5体育,https://live.goodiptv.club/api/cqyx.php?id=cctv5HD
CCTV5P,https://live.goodiptv.club/api/cqyx.php?id=cctv5SportHD
CCTV6电影,https://live.goodiptv.club/api/cqyx.php?id=cctv6HD
CCTV7国防军事,https://live.goodiptv.club/api/cqyx.php?id=cctv7HD
CCTV8电视剧,https://live.goodiptv.club/api/cqyx.php?id=cctv8HD
CCTV9纪录,https://live.goodiptv.club/api/cqyx.php?id=cctv9HD
CCTV10科教,https://live.goodiptv.club/api/cqyx.php?id=cctv10HD
CCTV11戏曲,https://live.goodiptv.club/api/cqyx.php?id=cctv11HD
CCTV12社会与法,https://live.goodiptv.club/api/cqyx.php?id=cctv12HD
CCTV13新闻,https://live.goodiptv.club/api/cqyx.php?id=CCTVNewsHD
CCTV14少儿,https://live.goodiptv.club/api/cqyx.php?id=cctvseHD
CCTV15音乐,https://live.goodiptv.club/api/cqyx.php?id=cctv15HD
CCTV16奥林匹克,https://live.goodiptv.club/api/cqyx.php?id=cctv16HD
CCTV17农业农村,https://live.goodiptv.club/api/cqyx.php?id=cctv17HD
重庆卫视,https://live.goodiptv.club/api/cqyx.php?id=chongqingHD
江苏卫视,https://live.goodiptv.club/api/cqyx.php?id=jiangsuHD
北京卫视,https://live.goodiptv.club/api/cqyx.php?id=beijingHD
浙江卫视,https://live.goodiptv.club/api/cqyx.php?id=zhejiangHD
东方卫视,https://live.goodiptv.club/api/cqyx.php?id=shanghaiHD
深圳卫视,https://live.goodiptv.club/api/cqyx.php?id=shenzhenHD
辽宁卫视,https://live.goodiptv.club/api/cqyx.php?id=liaoningHD
天津卫视,https://live.goodiptv.club/api/cqyx.php?id=tianjinHD
贵州卫视,https://live.goodiptv.club/api/cqyx.php?id=guizhouHD
四川卫视,https://live.goodiptv.club/api/cqyx.php?id=sichuanHD
云南卫视,https://live.goodiptv.club/api/cqyx.php?id=yunnanSD
东南卫视,https://live.goodiptv.club/api/cqyx.php?id=dongnanHD
黑龙江卫视,https://live.goodiptv.club/api/cqyx.php?id=heilongjiangHD
安徽卫视,https://live.goodiptv.club/api/cqyx.php?id=anhuiSD
河北卫视,https://live.goodiptv.club/api/cqyx.php?id=hebeiSD
江西卫视,https://live.goodiptv.club/api/cqyx.php?id=jiangxiHD
湖北卫视,https://live.goodiptv.club/api/cqyx.php?id=hubeiSD
海南卫视,https://live.goodiptv.club/api/cqyx.php?id=hainanSD
吉林卫视,https://live.goodiptv.club/api/cqyx.php?id=jilinHD
广西卫视,https://live.goodiptv.club/api/cqyx.php?id=guangxiHD
内蒙古卫视,https://live.goodiptv.club/api/cqyx.php?id=neimengkuSD
湖南卫视,https://live.goodiptv.club/api/cqyx.php?id=hunanHD
广东卫视,https://live.goodiptv.club/api/cqyx.php?id=guangdongHD
河南卫视,https://live.goodiptv.club/api/cqyx.php?id=henanHD
山西卫视,https://live.goodiptv.club/api/cqyx.php?id=shanxiSD
兵团卫视,https://live.goodiptv.club/api/cqyx.php?id=bingtuanSD
宁夏卫视,https://live.goodiptv.club/api/cqyx.php?id=ningxia
北京卡酷少儿,https://live.goodiptv.club/api/cqyx.php?id=bjkakuSD
金鹰卡通,https://live.goodiptv.club/api/cqyx.php?id=jinyingSD
三沙卫视,https://live.goodiptv.club/api/cqyx.php?id=sanshaSD
青海卫视,https://live.goodiptv.club/api/cqyx.php?id=qinghaiSD
中国天气,https://live.goodiptv.club/api/cqyx.php?id=tianqiSD
北京纪实科教,https://live.goodiptv.club/api/cqyx.php?id=bjayjsSD
山东教育卫视,https://live.goodiptv.club/api/cqyx.php?id=sdjiaoyuSD
新疆卫视,https://live.goodiptv.club/api/cqyx.php?id=xinjiangSD
西藏卫视,https://live.goodiptv.club/api/cqyx.php?id=xizangSD
CGTN,https://live.goodiptv.club/api/cqyx.php?id=cgtnSD
CETV-1,https://live.goodiptv.club/api/cqyx.php?id=cetv-1SD
CETV-4,https://live.goodiptv.club/api/cqyx.php?id=cetv-4SD
生活时尚,https://live.goodiptv.club/api/cqyx.php?id=shenghuo
百姓健康,https://live.goodiptv.club/api/cqyx.php?id=jiankangSD
快乐垂钓,https://live.goodiptv.club/api/cqyx.php?id=klcdHD
第一剧场,https://live.goodiptv.club/api/cqyx.php?id=diyijuchangHD
都市剧场,https://live.goodiptv.club/api/cqyx.php?id=dsjcHD
动漫秀场,https://live.goodiptv.club/api/cqyx.php?id=dmxcHD
魅力足球,https://live.goodiptv.club/api/cqyx.php?id=mlzqHD
风云剧场,https://live.goodiptv.club/api/cqyx.php?id=fyjcHD
求索纪录,https://live.goodiptv.club/api/cqyx.php?id=qsjlHD
兵器科技,https://live.goodiptv.club/api/cqyx.php?id=bqkjHD
游戏风云,https://live.goodiptv.club/api/cqyx.php?id=yxfyHD
怀旧剧场,https://live.goodiptv.club/api/cqyx.php?id=hjjcHD
风云音乐,https://live.goodiptv.club/api/cqyx.php?id=fyyyHD
央视台球,https://live.goodiptv.club/api/cqyx.php?id=ystqHD
风云足球,https://live.goodiptv.club/api/cqyx.php?id=fyzqHD
央视文化精品,https://live.goodiptv.club/api/cqyx.php?id=yswhHD
高尔夫网球,https://live.goodiptv.club/api/cqyx.php?id=golfHD
早期教育,https://live.goodiptv.club/api/cqyx.php?id=zaojiaoHD
重庆新闻,https://live.goodiptv.club/api/cqyx.php?id=CQTVNewsHD
重庆影视,https://live.goodiptv.club/api/cqyx.php?id=cqyingshiHD
重庆社会与法,https://live.goodiptv.club/api/cqyx.php?id=CQTVTrendyHD
重庆时尚生活,https://live.goodiptv.club/api/cqyx.php?id=cqssgwHD
重庆文体娱乐,https://live.goodiptv.club/api/cqyx.php?id=cqwtylHD
重庆新农村,https://live.goodiptv.club/api/cqyx.php?id=cqggncHD
重庆少儿,https://live.goodiptv.club/api/cqyx.php?id=cqseHD
重庆科教,https://live.goodiptv.club/api/cqyx.php?id=CQTVkejiaoHD
爱看导视,https://live.goodiptv.club/api/cqyx.php?id=aikanHD
重庆汽摩,https://live.goodiptv.club/api/cqyx.php?id=cqcarSD
重庆移动,https://live.goodiptv.club/api/cqyx.php?id=mryyHD
重广融媒,https://live.goodiptv.club/api/cqyx.php?id=cqrongmei
优购物,https://live.goodiptv.club/api/cqyx.php?id=yougouwu
家家购物,https://live.goodiptv.club/api/cqyx.php?id=jjgw
风尚购物,https://live.goodiptv.club/api/cqyx.php?id=fsgw
聚鲨环球精选,https://live.goodiptv.club/api/cqyx.php?id=jusha
中视购物,https://live.goodiptv.club/api/cqyx.php?id=ysgw
家有购物,https://live.goodiptv.club/api/cqyx.php?id=jygw
央广购物,https://live.goodiptv.club/api/cqyx.php?id=yggw
东方财经,https://live.goodiptv.club/api/cqyx.php?id=dfcj
证券服务,https://live.goodiptv.club/api/cqyx.php?id=jiazheng
书画,https://live.goodiptv.club/api/cqyx.php?id=shuhua
新动漫,https://live.goodiptv.club/api/cqyx.php?id=dongman
国学频道,https://live.goodiptv.club/api/cqyx.php?id=guoxue
优优宝贝,https://live.goodiptv.club/api/cqyx.php?id=youxi
中华特产,https://live.goodiptv.club/api/cqyx.php?id=techan
环球奇观,https://live.goodiptv.club/api/cqyx.php?id=car
生态环境,https://live.goodiptv.club/api/cqyx.php?id=shengtai
四海钓鱼,https://live.goodiptv.club/api/cqyx.php?id=diaoyu
发现之旅,https://live.goodiptv.club/api/cqyx.php?id=faxian
车迷,https://live.goodiptv.club/api/cqyx.php?id=doxtv
法治天地,https://live.goodiptv.club/api/cqyx.php?id=fazhi
金色学堂,https://live.goodiptv.club/api/cqyx.php?id=jinse
收藏天下,https://live.goodiptv.club/api/cqyx.php?id=soucang
财富天下,https://live.goodiptv.club/api/cqyx.php?id=caifu
女性时尚,https://live.goodiptv.club/api/cqyx.php?id=nvxing
中学生,https://live.goodiptv.club/api/cqyx.php?id=qicai
天元围棋,https://live.goodiptv.club/api/cqyx.php?id=weiqi
先锋乒羽,https://live.goodiptv.club/api/cqyx.php?id=xianfeng
环球旅游,https://live.goodiptv.club/api/cqyx.php?id=huanqiulvyou
老故事,https://live.goodiptv.club/api/cqyx.php?id=gushi
摄影频道,https://live.goodiptv.club/api/cqyx.php?id=sheying
靓妆,https://live.goodiptv.club/api/cqyx.php?id=liang
肥羊YQGD,#genre#
4K60PSDR-H264-AAC测试,http://159.75.85.63:5680/d/ad/h264/playad.m3u8
4K60PHLG-HEVC-EAC3测试,http://159.75.85.63:5680/d/ad/playad.m3u8
CCTV1HD,https://live.goodiptv.club/api/yqgd.php?id=cctv1hd
CCTV2HD,https://live.goodiptv.club/api/yqgd.php?id=cctv2hd
CCTV3HD,https://live.goodiptv.club/api/yqgd.php?id=cctv3hd
CCTV4,https://live.goodiptv.club/api/yqgd.php?id=cctv4
CCTV5HD,https://live.goodiptv.club/api/yqgd.php?id=cctv5hd
CCTV5+HD,https://live.goodiptv.club/api/yqgd.php?id=cctv5p
CCTV6HD,https://live.goodiptv.club/api/yqgd.php?id=cctv6hd
CCTV7HD,https://live.goodiptv.club/api/yqgd.php?id=cctv7hd
CCTV8HD,https://live.goodiptv.club/api/yqgd.php?id=cctv8hd
CCTV9HD,https://live.goodiptv.club/api/yqgd.php?id=cctv9hd
CCTV10HD,https://live.goodiptv.club/api/yqgd.php?id=cctv10hd
CCTV11,https://live.goodiptv.club/api/yqgd.php?id=cctv11
CCTV12HD,https://live.goodiptv.club/api/yqgd.php?id=cctv12hd
CCTV13,https://live.goodiptv.club/api/yqgd.php?id=cctv13
CCTV14HD,https://live.goodiptv.club/api/yqgd.php?id=cctv14hd
CCTV15,https://live.goodiptv.club/api/yqgd.php?id=cctv15
CCTV16HD,https://live.goodiptv.club/api/yqgd.php?id=cctv16hd
CCTV17,https://live.goodiptv.club/api/yqgd.php?id=cctv17
CCTV兵器科技,https://live.goodiptv.club/api/yqgd.php?id=bqkj
CCTV怀旧剧场,https://live.goodiptv.club/api/yqgd.php?id=hjjc
CCTV第一剧场,https://live.goodiptv.club/api/yqgd.php?id=dyjc
CCTV风云剧场,https://live.goodiptv.club/api/yqgd.php?id=fyjc
CCTV风云音乐,https://live.goodiptv.club/api/yqgd.php?id=fyyy
CCTV风云足球,https://live.goodiptv.club/api/yqgd.php?id=fyzq
CCTV世界地理,https://live.goodiptv.club/api/yqgd.php?id=sjdl
CCTV央视文化精品,https://live.goodiptv.club/api/yqgd.php?id=whjp
CCTV卫生健康,https://live.goodiptv.club/api/yqgd.php?id=wsjk
中央新影－发现之旅,https://live.goodiptv.club/api/yqgd.php?id=fxzl
中央新影－老故事,https://live.goodiptv.club/api/yqgd.php?id=lgs
央广购物,https://live.goodiptv.club/api/yqgd.php?id=yggw
书画,https://live.goodiptv.club/api/yqgd.php?id=sh
CGTN,https://live.goodiptv.club/api/yqgd.php?id=cgtn
CETV1,https://live.goodiptv.club/api/yqgd.php?id=cetv1
CETV4,https://live.goodiptv.club/api/yqgd.php?id=cetv4
CHC高清电影,https://live.goodiptv.club/api/yqgd.php?id=chcgqdy
CHC动作电影,https://live.goodiptv.club/api/yqgd.php?id=chcdzdy
CHC动作电影2,https://live.goodiptv.club/api/yqgd.php?id=chdzdy2
CHC家庭影院,https://live.goodiptv.club/api/yqgd.php?id=chcjtyy
CHC家庭影院2,https://live.goodiptv.club/api/yqgd.php?id=chcjtyy2
北京卫视HD,https://live.goodiptv.club/api/yqgd.php?id=bjwshd
东方卫视HD,https://live.goodiptv.club/api/yqgd.php?id=dfwshd
天津卫视HD,https://live.goodiptv.club/api/yqgd.php?id=tjwshd
重庆卫视HD,https://live.goodiptv.club/api/yqgd.php?id=cqwshd
黑龙江卫视HD,https://live.goodiptv.club/api/yqgd.php?id=hljwshd
吉林卫视HD,https://live.goodiptv.club/api/yqgd.php?id=jlwshd
辽宁卫视HD,https://live.goodiptv.club/api/yqgd.php?id=lnwshd
内蒙古卫视,https://live.goodiptv.club/api/yqgd.php?id=nmws
宁夏卫视,https://live.goodiptv.club/api/yqgd.php?id=nxws
甘肃卫视,https://live.goodiptv.club/api/yqgd.php?id=gsws
青海卫视,https://live.goodiptv.club/api/yqgd.php?id=qhws
河北卫视HD,https://live.goodiptv.club/api/yqgd.php?id=hbwshd
山西卫视HD,https://live.goodiptv.club/api/yqgd.php?id=sxiwshd
山东卫视HD,https://live.goodiptv.club/api/yqgd.php?id=sdwshd
安徽卫视HD,https://live.goodiptv.club/api/yqgd.php?id=ahwshd
湖北卫视HD,https://live.goodiptv.club/api/yqgd.php?id=hubwshd
湖南卫视HD,https://live.goodiptv.club/api/yqgd.php?id=hunwshd
江西卫视HD,https://live.goodiptv.club/api/yqgd.php?id=jxwshd
江苏卫视HD,https://live.goodiptv.club/api/yqgd.php?id=jswshd
浙江卫视HD,https://live.goodiptv.club/api/yqgd.php?id=zjwshd
东南卫视,https://live.goodiptv.club/api/yqgd.php?id=dnws
广东卫视,https://live.goodiptv.club/api/yqgd.php?id=gdws
深圳卫视HD,https://live.goodiptv.club/api/yqgd.php?id=szwshd
广西卫视,https://live.goodiptv.club/api/yqgd.php?id=gxws
云南卫视,https://live.goodiptv.club/api/yqgd.php?id=ynws
贵州卫视,https://live.goodiptv.club/api/yqgd.php?id=gzws
四川卫视HD,https://live.goodiptv.club/api/yqgd.php?id=scwshd
新疆卫视,https://live.goodiptv.club/api/yqgd.php?id=xjws
兵团卫视,https://live.goodiptv.club/api/yqgd.php?id=btws
西藏卫视,https://live.goodiptv.club/api/yqgd.php?id=xzws
海南卫视,https://live.goodiptv.club/api/yqgd.php?id=hinws
卡酷少儿,https://live.goodiptv.club/api/yqgd.php?id=kkse
环球奇观,https://live.goodiptv.club/api/yqgd.php?id=hqqg
DOXTV,https://live.goodiptv.club/api/yqgd.php?id=doxtv
都市剧场,https://live.goodiptv.club/api/yqgd.php?id=dsjc
法治天地,https://live.goodiptv.club/api/yqgd.php?id=fztd
劲爆体育HD,https://live.goodiptv.club/api/yqgd.php?id=jbtyhd
极速汽车HD,https://live.goodiptv.club/api/yqgd.php?id=jsqchd
乐游HD,https://live.goodiptv.club/api/yqgd.php?id=lyhd
生活时尚,https://live.goodiptv.club/api/yqgd.php?id=shss
金色学堂,https://live.goodiptv.club/api/yqgd.php?id=jsxt
魅力足球HD,https://live.goodiptv.club/api/yqgd.php?id=mlzqhd
幸福彩,https://live.goodiptv.club/api/yqgd.php?id=xfc
汽摩,https://live.goodiptv.club/api/yqgd.php?id=qm
家庭理财,https://live.goodiptv.club/api/yqgd.php?id=jtlc
游戏竞技,https://live.goodiptv.club/api/yqgd.php?id=yxjj
网络棋牌,https://live.goodiptv.club/api/yqgd.php?id=wlqp
山西公共青运,https://live.goodiptv.club/api/yqgd.php?id=sxggqy
山西经济与科教,https://live.goodiptv.club/api/yqgd.php?id=sxjjkj
山西社会与法治,https://live.goodiptv.club/api/yqgd.php?id=sxshfz
山西文体生活,https://live.goodiptv.club/api/yqgd.php?id=sxwtsh
山西影视,https://live.goodiptv.club/api/yqgd.php?id=sxys
山西黄河,https://live.goodiptv.club/api/yqgd.php?id=sxhh
山西导视,https://live.goodiptv.club/api/yqgd.php?id=sxds
阳泉新闻综合HD,https://live.goodiptv.club/api/yqgd.php?id=yqxwzhhd
阳泉科教HD,https://live.goodiptv.club/api/yqgd.php?id=yqkjhd
收藏天下,https://live.goodiptv.club/api/yqgd.php?id=sctx
山东教育卫视,https://live.goodiptv.club/api/yqgd.php?id=sdjy
国学频道,https://live.goodiptv.club/api/yqgd.php?id=gxpd
茶频道,https://live.goodiptv.club/api/yqgd.php?id=cpd
金鹰卡通,https://live.goodiptv.club/api/yqgd.php?id=jykt
快乐垂钓,https://live.goodiptv.club/api/yqgd.php?id=klcd
先锋乒羽,https://live.goodiptv.club/api/yqgd.php?id=xfpy
财富天下,https://live.goodiptv.club/api/yqgd.php?id=cftx
靓妆,https://live.goodiptv.club/api/yqgd.php?id=lz
优漫卡通,https://live.goodiptv.club/api/yqgd.php?id=ymkt
摄影频道,https://live.goodiptv.club/api/yqgd.php?id=sypd
精品,#genre#
北京冬奥,http://dbiptv.sn.chinamobile.com/PLTV/88888890/224/3221226232/index.m3u8
纪实人文,http://dbiptv.sn.chinamobile.com/PLTV/88888890/224/3221226230/index.m3u8
求索纪录,http://39.134.66.110/PLTV/88888888/224/3221225713/index.m3u8
黑莓电影,http://39.134.66.110/PLTV/88888888/224/3221225681/index.m3u8
黑莓动画,http://39.134.66.110/PLTV/88888888/224/3221225529/index.m3u8
爱情喜剧,http://39.134.66.110/PLTV/88888888/224/3221225533/index.m3u8
超级电视剧,http://39.134.66.110/PLTV/88888888/224/3221225637/index.m3u8
超级电影,http://39.134.66.110/PLTV/88888888/224/3221225644/index.m3u8
超级体育,http://39.134.66.110/PLTV/88888888/224/3221225635/index.m3u8
超级综艺,http://39.134.66.110/PLTV/88888888/224/3221225642/index.m3u8
潮妈辣婆,http://39.134.66.110/PLTV/88888888/224/3221225542/index.m3u8
东北热剧,http://39.134.66.110/PLTV/88888888/224/3221225679/index.m3u8
北京冬奥,http://39.134.66.110/PLTV/88888888/224/3221225670/index.m3u8
动作电影,http://39.134.66.110/PLTV/88888888/224/3221225555/index.m3u8
古装剧场,http://39.134.66.110/PLTV/88888888/224/3221225524/index.m3u8
欢乐剧场,http://39.134.66.110/PLTV/88888888/224/3221225682/index.m3u8
纪实人文,http://39.134.66.110/PLTV/88888888/224/3221225673/index.m3u8
家庭剧场,http://39.134.66.110/PLTV/88888888/224/3221225538/index.m3u8
金牌综艺,http://39.134.66.110/PLTV/88888888/224/3221225525/index.m3u8
惊悚悬疑,http://39.134.66.110/PLTV/88888888/224/3221225553/index.m3u8
精品大剧,http://39.134.66.110/PLTV/88888888/224/3221225536/index.m3u8
精品纪录,http://39.134.66.110/PLTV/88888888/224/3221225545/index.m3u8
精品体育,http://39.134.66.110/PLTV/88888888/224/3221225526/index.m3u8
军旅剧场,http://39.134.66.110/PLTV/88888888/224/3221225560/index.m3u8
军事评论,http://39.134.66.110/PLTV/88888888/224/3221225535/index.m3u8
农业致富,http://39.134.66.110/PLTV/88888888/224/3221225552/index.m3u8
武搏世界,http://39.134.66.110/PLTV/88888888/224/3221225547/index.m3u8
炫舞未来,http://39.134.66.110/PLTV/88888888/224/3221225646/index.m3u8
中国功夫,http://39.134.66.110/PLTV/88888888/224/3221225604/index.m3u8
金马影院,http://hpull.kktv8.com/livekktv/128600025/playlist.m3u8
足球频道,https://nmglive.imfc.cn/5n1r1c/182396.m3u8
NewTV,#genre#
NewTV超级体育,http://39.134.66.66/PLTV/88888888/224/3221225635/index.m3u8
NewTV超级体育,http://39.135.138.59:18890/PLTV/88888910/224/3221225622/index.m3u8
NewTV超级体育,http://39.135.138.59:18890/PLTV/88888910/224/3221225648/index.m3u8
NewTV超级体育,http://39.135.138.60:18890/PLTV/88888910/224/3221225767/index.m3u8
NewTV超级体育,http://ottrrs.hl.chinamobile.com/PLTV/88888888/224/3221225715/index.m3u8
NewTV超级综艺,http://39.134.66.66/PLTV/88888888/224/3221225642/index.m3u8
NewTV超级综艺,http://39.135.138.59:18890/PLTV/88888910/224/3221225768/index.m3u8
NewTV超级综艺,http://39.135.138.60:18890/PLTV/88888910/224/3221225620/index.m3u8
NewTV超级综艺,http://ottrrs.hl.chinamobile.com/PLTV/88888888/224/3221225714/index.m3u8
NewTV潮妈辣婆,http://39.134.66.66/PLTV/88888888/224/3221225542/index.m3u8
NewTV潮妈辣婆,http://ottrrs.hl.chinamobile.com/PLTV/88888888/224/3221225685/index.m3u8
NewTV东北热剧,http://39.135.135.35:80/wh7f454c46tw1751026922_1159821621/ottrrs.hl.chinamobile.com/PLTV/88888888/224/3221225741/index.m3u8?icpid=88888888&RTS=1554599523&from=1&hms_devid=691
NewTV东北热剧,http://ottrrs.hl.chinamobile.com/PLTV/88888888/224/3221225741/index.m3u8
NewTV动作电影,http://ottrrs.hl.chinamobile.com/PLTV/88888888/224/3221225661/index.m3u8
NewTV古装剧场,http://39.134.66.66/PLTV/88888888/224/3221225524/index.m3u8
NewTV古装剧场,http://39.135.138.60:18890/PLTV/88888910/224/3221225678/index.m3u8
NewTV古装剧场,http://ottrrs.hl.chinamobile.com/PLTV/88888888/224/3221225663/index.m3u8
NewTV海外剧场,http://ottrrs.hl.chinamobile.com/PLTV/88888888/224/3221225671/index.m3u8
NewTV欢乐剧场,http://39.135.135.81:80/wh7f454c46tw1744894462_1818032107/ottrrs.hl.chinamobile.com/PLTV/88888888/224/3221225742/index.m3u8?icpid=88888888&RTS=1554599517&from=1&hms_devid=690
NewTV欢乐剧场,http://ottrrs.hl.chinamobile.com/PLTV/88888888/224/3221225742/index.m3u8
NewTV家庭剧场,http://39.134.66.66/PLTV/88888888/224/3221225538/index.m3u8
NewTV家庭剧场,http://ottrrs.hl.chinamobile.com/PLTV/88888888/224/3221225677/index.m3u8
NewTV金牌综艺,http://39.134.66.66/PLTV/88888888/224/3221225525/index.m3u8
NewTV金牌综艺,http://39.135.138.59:18890/PLTV/88888910/224/3221225711/index.m3u8
NewTV惊悚悬疑,http://39.134.66.66/PLTV/88888888/224/3221225553/index.m3u8
黑莓电影,http://39.135.138.60:18890/PLTV/88888910/224/3221225718/index.m3u8
黑莓动画,http://39.134.66.66/PLTV/88888888/224/3221225529/index.m3u8
黑莓动画,http://39.135.138.59:18890/PLTV/88888910/224/3221225672/index.m3u8
优漫卡通,http://39.135.138.59:18890/PLTV/88888910/224/3221225665/index.m3u8
金鹰卡通,http://39.135.138.59:18890/PLTV/88888910/224/3221225721/index.m3u8
超级综艺,http://39.135.138.58:18890/PLTV/88888888/224/3221225620/index.m3u8?blog.ntnas.top
东北热剧,http://39.135.138.58:18890/PLTV/88888888/224/3221226202/index.m3u8?blog.ntnas.top
欢乐剧场,http://39.135.138.58:18890/PLTV/88888888/224/3221226210/index.m3u8?blog.ntnas.top
炫舞未来,http://39.135.138.58:18890/PLTV/88888888/224/3221225707/index.m3u8?blog.ntnas.top
CHC动作电影,http://111.20.45.162/dbiptv.sn.chinamobile.com/PLTV/88888890/224/3221226465/index.m3u8
CHC动作电影,http://39.134.18.66/dbiptv.sn.chinamobile.com/PLTV/88888888/224/3221226465/1.m3u8
CHC动作电影,http://39.134.19.228:6610/yinhe/2/ch00000090990000002055/index.m3u8?virtualDomain=yinhe.live_hls.zte.com
CHC动作电影,http://dbiptv.sn.chinamobile.com/PLTV/88888890/224/3221226465/index.m3u8
CHC高清电影,http://111.20.105.60:6060/yinhe/2/ch00000090990000002065/index.m3u8?virtualDomain=yinhe.live_hls.zte.com
CHC高清电影,http://111.20.105.60:6060/yinhe/2/ch00000090990000002065?virtualDomain=yinhe.live_hls.zte.com
CHC高清电影,http://39.134.18.65/dbiptv.sn.chinamobile.com/PLTV/88888890/224/3221226463/index.m3u8
CHC高清电影,http://39.134.18.66/dbiptv.sn.chinamobile.com/PLTV/88888890/224/3221226463/index.m3u8
CHC高清电影,http://39.134.18.68/dbiptv.sn.chinamobile.com/PLTV/88888888/224/3221226463/1.m3u8
CHC高清电影,http://39.134.18.69/dbiptv.sn.chinamobile.com/PLTV/88888888/224/3221226463/1.m3u8
CHC高清电影,http://dbiptv.sn.chinamobile.com/PLTV/88888890/224/3221226463/index.m3u8
CHC家庭影院,http://111.20.105.60:6060/yinhe/2/ch00000090990000002085/index.m3u8?virtualDomain=yinhe.live_hls.zte.com
CHC家庭影院,http://111.20.105.60:6060/yinhe/2/ch00000090990000002085?virtualDomain=yinhe.live_hls.zte.com
CHC家庭影院,http://39.134.18.65/dbiptv.sn.chinamobile.com/PLTV/88888888/224/3221226462/1.m3u8
CHC家庭影院,http://39.134.18.68/dbiptv.sn.chinamobile.com/PLTV/88888890/224/3221226462/index.m3u8
CHC家庭影院,http://39.134.19.228:6610/yinhe/2/ch00000090990000002085/index.m3u8?virtualDomain=yinhe.live_hls.zte.com
CHC家庭影院,http://dbiptv.sn.chinamobile.com/PLTV/88888890/224/3221226462/index.m3u8
