

🇨🇳  CCTV ,#genre#

CCTV1,http://39.134.24.165/dbiptv.sn.chinamobile.com/PLTV/88888888/224/3221225804/1.m3u8
CCTV2,http://39.134.24.165/dbiptv.sn.chinamobile.com/PLTV/88888888/224/3221226195/1.m3u8
CCTV3综艺,http://123.101.98.20:9898/tsfile/live/0003_1.m3u8
CCTV4,http://39.134.24.165/dbiptv.sn.chinamobile.com/PLTV/88888888/224/3221226191/1.m3u8
CCTV5,http://39.134.24.165/dbiptv.sn.chinamobile.com/PLTV/88888888/224/3221226395/1.m3u8
CCTV5+,http://39.134.24.165/dbiptv.sn.chinamobile.com/PLTV/88888888/224/3221225761/1.m3u8
CCTV6,http://39.134.24.165/dbiptv.sn.chinamobile.com/PLTV/88888888/224/3221226393/1.m3u8
CCTV7,http://39.134.24.165/dbiptv.sn.chinamobile.com/PLTV/88888888/224/3221226192/1.m3u8
CCTV7,http://39.134.24.165/dbiptv.sn.chinamobile.com/PLTV/88888888/224/3221225778/1.m3u8
CCTV8,http://39.134.24.165/dbiptv.sn.chinamobile.com/PLTV/88888888/224/3221226391/1.m3u8
CCTV9,http://39.134.24.165/dbiptv.sn.chinamobile.com/PLTV/88888888/224/3221226197/1.m3u8
CCTV13,http://39.134.24.165/dbiptv.sn.chinamobile.com/PLTV/88888888/224/3221226233/1.m3u8
CCTV15音乐,http://123.101.98.20:9898/tsfile/live/0015_1.m3u8
🇨🇳 地方台 ,#genre#
江西卫视,http://39.134.24.165/dbiptv.sn.chinamobile.com/PLTV/88888888/224/3221225764/1.m3u8
江西卫视,http://123.101.98.20:9898/tsfile/live/0138_1.m3u8
东南卫视,http://39.134.24.165/dbiptv.sn.chinamobile.com/PLTV/88888888/224/3221225766/1.m3u8
东南卫视,http://123.101.98.20:9898/tsfile/live/0137_1.m3u8
四川卫视,http://39.134.24.165/dbiptv.sn.chinamobile.com/PLTV/88888888/224/3221225768/1.m3u8
四川卫视,http://123.101.98.20:9898/tsfile/live/0123_1.m3u8
安徽卫视,http://39.134.24.165/dbiptv.sn.chinamobile.com/PLTV/88888888/224/3221225773/1.m3u8
安徽卫视,http://123.101.98.20:9898/tsfile/live/0130_1.m3u8
浙江卫视,http://39.134.24.165/dbiptv.sn.chinamobile.com/PLTV/88888888/224/3221225798/1.m3u8
浙江卫视,http://123.101.98.20:9898/tsfile/live/0124_1.m3u8
山东卫视,http://39.134.24.165/dbiptv.sn.chinamobile.com/PLTV/88888888/224/3221226012/1.m3u8
山东卫视,http://123.101.98.20:9898/tsfile/live/0131_1.m3u8
江苏卫视,http://39.134.24.165/dbiptv.sn.chinamobile.com/PLTV/88888888/224/3221226200/1.m3u8
江苏卫视,http://123.101.98.20:9898/tsfile/live/0127_1.m3u8
深圳卫视,http://39.134.24.165/dbiptv.sn.chinamobile.com/PLTV/88888888/224/3221226205/1.m3u8
深圳卫视,http://123.101.98.20:9898/tsfile/live/0126_1.m3u8
北京卫视,http://39.134.24.165/dbiptv.sn.chinamobile.com/PLTV/88888888/224/3221226222/1.m3u8

金鹰卡通,http://39.134.24.165/dbiptv.sn.chinamobile.com/PLTV/88888888/224/3221225744/1.m3u8

🇨🇳 音乐频道,#genre#
欧阳菲菲-热情的沙漠,http://em.21dtv.com/songs/60036266.mkv
光良+曹格-少年,http://em.21dtv.com/songs/60038120.mkv
龙奔-全民社会摇,http://em.21dtv.com/songs/60129866.mkp3tpu9ghk2ufev
许美静-想念,http://em.21dtv.com/songs/60049180.mkv

火红的萨日朗,https://15799848.s21v.faiusr.com/58/ABUIABA6GAAgnaLV4gUop5aBpQY.mp4
半壶纱.刘珂矣,https://15799848.s21v.faiusr.com/58/ABUIABA6GAAg1K6M5gUo3ruZrwc.mp4
沙漠骆驼,http://15799848.s21v.faiusr.com/58/ABUIABA6GAAgjbGM5gUon8K7eQ.mp4
太想念,http://15799848.s21v.faiusr.com/58/ABUIABA6GAAgwpai5wUo8ODKhQE.mkf4g5p5hpevqbx6
小苹果,https://15799848.s21v.faiusr.com/58/ABUIABA6GAAgy6fE4gUoksb_nwQ.mp4
漫漫前路,https://vd3.bdstatic.com:443/mda-mg88xryxju37pk01/fhd/cae_h264_nowatermark/1625872882350225390/mda-mg88xryxju37pk01.mp4
浪子闲话,https://vd2.bdstatic.com:443/mda-maugi03nhmfbkdmz/v1-cae/1080p/mda-maugi03nhmfbkdmz.mp4
燕无歇,http://txmov2.a.yximgs.com/upic/2021/01/16/06/BMjAyMTAxMTYwNjU1MDBfMTU0MDc1NjUwOF80MjQ0MTcyNDAxMF8yXzM=_b_B3b8ab9d72d0b82c60425370678668244.mp4
风筝误,https://vdse.bdstatic.com/c331feb0b4730b05d03793ffc024e62a.mp4?authorization=bce-auth-v1%2F40f207e648424f47b2e3dfbb1014b1a5%2F2017-05-11T09%3A02%3A31Z%2F-1%2F
降央卓玛,https://vdse.bdstatic.com//0ce1279c88ff9ab48f48d4e86860cd46.mp4
孤勇者,https://vd2.bdstatic.com/mda-mmkfweauph7ju2rr/sc/cae_h264_delogo/1643229088196056141/mda-mmkfweauph7ju2rr.mp4
阿梨粤,https://vd3.bdstatic.com/mda-nee8sphdiyar5qfc/sc/cae_h264/1652595644034518917/mda-nee8sphdiyar5qfc.mp4
大田后生仔_丫蛋蛋,https://vd2.bdstatic.com/mda-jk0s5kte1btis2ez/sc/mda-jk0s5kte1btis2ez.mp4
狂狼,https://15799848.s21v.faiusr.com/58/ABUIABA6GAAgsK2M5gUosN7C7QQ.mp4
桥边姑娘_刘燕燕,https://15799848.s21v.faiusr.com/58/ABUIABA6GAAg4b_2-AUo7pfgrgc.mjshcpd847mhnjgj
没有你陪伴我真的好孤单.冷漠,https://15799848.s21v.faiusr.com/58/ABUIABA6GAAgjdHE4gUogP7YjwI.mp4
一曲相思1,https://15799848.s21v.faiusr.com/58/ABUIABA6GAAg4oDG4gUo69_8zAQ.mp4
庄心妍_一万个舍不得,https://15799848.s21v.faiusr.com/58/ABUIABA6GAAgjqm04gUo4PH90wM.mp4
🇨🇳音乐DJ,#genre#
DJ音乐01,https://vd3.bdstatic.com/mda-nda3jnm5kjr0pzkk/480p/h264_delogo/1649645090089685317/mda-nda3jnm5kjr0pzkk.mp4
DJ音乐02,https://vd4.bdstatic.com/mda-ndc2akp3ve971zsx/480p/h264_delogo/1649813962979142773/mda-ndc2akp3ve971zsx.mp4
DJ音乐03,https://vd3.bdstatic.com/mda-ndd2kbfrvgzzt5zc/480p/h264_delogo/1649901097405881759/mda-ndd2kbfrvgzzt5zc.mp4
DJ音乐04,https://vd4.bdstatic.com/mda-ndec79cmtjbdznfb/480p/h264_delogo/1650012233317163165/mda-ndec79cmtjbdznfb.mp4
DJ音乐05,https://vd4.bdstatic.com/mda-ndhdtit37qtisjda/480p/h264_delogo/1650275228081595455/mda-ndhdtit37qtisjda.mp4
DJ音乐06,https://vd3.bdstatic.com/mda-ndd3yrxmmfyci3b9/480p/h264_delogo/1649904694120096435/mda-ndd3yrxmmfyci3b9.mp4
DJ音乐07,https://vd3.bdstatic.com/mda-ndf2e5d2bsgftwrt/480p/h264_delogo/1650073422791087790/mda-ndf2e5d2bsgftwrt.mp4
DJ音乐08,https://vd2.bdstatic.com/mda-ncn28jk4b66yj318/480p/h264_delogo/1647999428356973409/mda-ncn28jk4b66yj318.mp4
DJ音乐09,https://vd3.bdstatic.com/mda-nd53ytstfqsu5qr5/480p/h264_delogo/1649214359850036018/mda-nd53ytstfqsu5qr5.mp4
DJ音乐10,https://vd2.bdstatic.com/mda-nd44sygreax18jk5/480p/h264_delogo/1649130017612498270/mda-nd44sygreax18jk5.mp4
DJ音乐11,https://vd2.bdstatic.com/mda-ndd0byuyrw19vv2g/480p/h264_delogo/1649895616476076795/mda-ndd0byuyrw19vv2g.mp4
DJ音乐12,https://vd4.bdstatic.com/mda-nda2b774z37ig4yh/480p/h264_delogo/1649641534392565187/mda-nda2b774z37ig4yh.mp4
DJ音乐13,https://vd2.bdstatic.com/mda-nde1zha2ickju5ui/480p/h264_delogo/1649986202699266753/mda-nde1zha2ickju5ui.mp4
DJ音乐14,https://vd2.bdstatic.com/mda-nde83jtsrx9345ai/480p/h264_delogo/1650001792789333244/mda-nde83jtsrx9345ai.mp4
DJ音乐15,https://vd3.bdstatic.com/mda-ndd9pwn5djrh80tn/480p/h264_delogo/1649919370531344965/mda-ndd9pwn5djrh80tn.mp4
DJ音乐16,https://vd3.bdstatic.com/mda-nde286gfshg88ehj/480p/h264_delogo/1649986845621209556/mda-nde286gfshg88ehj.mp4
DJ音乐17,https://vd2.bdstatic.com/mda-nde3tgqcpn6ybmzi/480p/h264_delogo/1649990812107105473/mda-nde3tgqcpn6ybmzi.mp4
DJ音乐18,https://vd4.bdstatic.com/mda-nd94mmwgi7n5yjuq/480p/h264_delogo/1649560996209064951/mda-nd94mmwgi7n5yjuq.mp4
DJ音乐19,https://vd2.bdstatic.com/mda-ndh1zq5t0ch5v0ai/480p/h264_delogo/1650245390711418844/mda-ndh1zq5t0ch5v0ai.mp4
DJ音乐20,https://vd3.bdstatic.com/mda-nd6efub0q87grqqi/480p/h264_delogo/1649326957736508274/mda-nd6efub0q87grqqi.mp4
DJ音乐21,https://vd2.bdstatic.com/mda-nd1504ikeuhvz01a/480p/h264_delogo/1648871675027565108/mda-nd1504ikeuhvz01a.mp4
DJ音乐22,https://vd2.bdstatic.com/mda-nda1yfyvguy1xnwu/480p/h264_delogo/1649640493896155540/mda-nda1yfyvguy1xnwu.mp4
DJ音乐23,https://vd2.bdstatic.com/mda-ndi440j2kyq8z5ud/480p/h264_delogo/1650337433594758029/mda-ndi440j2kyq8z5ud.mp4
DJ音乐24,https://vd2.bdstatic.com/mda-ndg1w6tqf2t511dd/480p/h264_delogo/1650158717653584279/mda-ndg1w6tqf2t511dd.mp4
DJ音乐25,https://vd3.bdstatic.com/mda-ndh1u3bxnsqeakhc/480p/h264_delogo/1650244946349970218/mda-ndh1u3bxnsqeakhc.mp4
DJ音乐26,https://vd2.bdstatic.com/mda-mm595gmdf11p2pf0/1080p/cae_h264/1638806041749745133/mda-mm595gmdf11p2pf0.mp4
DJ音乐27,https://vdse.bdstatic.com//c9e449d2db0a3fa5f6a8afafbc43fbdc.mp4
DJ音乐29,https://vd2.bdstatic.com/mda-mm33bvw7zymzhwgx/1080p/cae_h264/1638591344918378556/mda-mm33bvw7zymzhwgx.mp4
DJ音乐30,https://vdse.bdstatic.com//6d2f84ad5762c818efd8dc210d8743c6.mp4
DJ音乐33,https://vd4.bdstatic.com/mda-mmgf9k7sqr771a0d/1080p/cae_h264/1639739439753027337/mda-mmgf9k7sqr771a0d.mp4
DJ音乐34,https://vd3.bdstatic.com/mda-na6dfu04esrk6iz3/hd/cae_h264/1641595040492179155/mda-na6dfu04esrk6iz3.mp4
DJ音乐35,https://vd3.bdstatic.com/mda-mmafnqjbnjknv6kt/480p/h264/1639221507656798511/mda-mmafnqjbnjknv6kt.mp4
DJ音乐36,https://vd3.bdstatic.com/mda-mki529nvmkxde6x8/480p/h264/1637293395968208020/mda-mki529nvmkxde6x8.mp4
DJ音乐37,https://vdse.bdstatic.com//fbbd25c517d1ba56b3ecbfb16c27d7e9.mp4
DJ音乐38,https://vd3.bdstatic.com/mda-nbn9ud3ukuw0mtsy/480p/h264_delogo/1645600453315520060/mda-nbn9ud3ukuw0mtsy.mp4
DJ音乐39,https://vdse.bdstatic.com//cdc81b17fdaf07c73eb464fd55d52491.mp4
DJ音乐41,https://vd3.bdstatic.com/mda-ncf484p0syv6xg0a/480p/h264_delogo/1647400277845087234/mda-ncf484p0syv6xg0a.mp4
DJ音乐42,https://vd3.bdstatic.com/mda-nbp7276gikv77v8k/480p/h264_delogo/1645678921460669227/mda-nbp7276gikv77v8k.mp4
DJ音乐45,https://vd3.bdstatic.com/mda-nbseeqvr2wxags9r/480p/h264_delogo/1645956906867728647/mda-nbseeqvr2wxags9r.mp4
DJ音乐46,https://vd3.bdstatic.com/mda-nddhgbewc3216xex/480p/h264_delogo/1649939238565329231/mda-nddhgbewc3216xex.mp4
DJ音乐47,https://vd3.bdstatic.com/mda-ndb2hwcy2m1eh7fr/480p/h264_delogo/1649728102480744162/mda-ndb2hwcy2m1eh7fr.mp4
DJ音乐48,https://vd3.bdstatic.com/mda-ndf23nsfjwicsj8s/480p/h264_delogo/1650072960359224687/mda-ndf23nsfjwicsj8s.mp4
DJ音乐49,https://vd3.bdstatic.com/mda-nd2781w8ktumnq1g/480p/h264_delogo/1648962781036525986/mda-nd2781w8ktumnq1g.mp4
DJ音乐50,https://vd3.bdstatic.com/mda-nda15z8cpdpgg73a/480p/h264_delogo/1649638556450189969/mda-nda15z8cpdpgg73a.mp4
DJ音乐51,https://vdse.bdstatic.com//f1aee7ea7f31afbe48e891783d8ba819.mp4
DJ音乐52,https://vdse.bdstatic.com//195039d170345f5e627e4a58814cbf30.mp4
DJ音乐53,https://vd3.bdstatic.com/mda-nbn91isd23w0qryh/480p/h264_delogo/1645598539041220240/mda-nbn91isd23w0qryh.mp4
DJ音乐54,https://vd3.bdstatic.com/mda-mm74rxnm4pcvs9w1/480p/h264/1638933875495396453/mda-mm74rxnm4pcvs9w1.mp4
DJ音乐55,https://vd3.bdstatic.com/mda-na8740hnr2zkuqk8/480p/h264_delogo/1641704642063224424/mda-na8740hnr2zkuqk8.mp4
🇨🇳 MV DJ,#genre#
花儿笑了DJ,https://vd4.bdstatic.com/mda-ncj7vawq5rnk5v59/hd/cae_h264_delogo/1647759626623363912/mda-ncj7vawq5rnk5v59.mp4
模特 DJ,http://gcw.bdcdn.shoujiduoduo.com/201805/0247-477.mp4
DJ 洗脑神曲,https://vdse.bdstatic.com//bf4bb1d82b2eb17681c49e745dc2da21.mp4
今日热歌 DJ,https://vd2.bdstatic.com/mda-mhhf5mr00yyhpfjs/1080p/cae_h264/1629284581057661229/mda-mhhf5mr00yyhpfjs.mp4
动感 DJ,https://vd4.bdstatic.com/mda-mhqekuf2r91v08dt/1080p/cae_h264/1629888246186602728/mda-mhqekuf2r91v08dt.mp4
车载必备 DJ,https://vd3.bdstatic.com/mda-mhve4gb9hi8cstzk/1080p/cae_h264/1630319514896018158/mda-mhve4gb9hi8cstzk.mp4
新情歌DJ,https://vd3.bdstatic.com/mda-mkm49f32vcaf16y0/sc/cae_h264/1637551531193286304/mda-mkm49f32vcaf16y0.mp4
爱情情歌dj网,https://vd2.bdstatic.com/mda-mkq4iax6ed1yimay/sc/cae_h264/1637837116068761026/mda-mkq4iax6ed1yimay.mp4
绝美情歌dj,https://vd2.bdstatic.com/mda-mkp952u577gbq8uc/sc/cae_h264/1637737197319948432/mda-mkp952u577gbq8uc.mp4
慢摇dj舞曲,https://vd2.bdstatic.com/mda-mkpi5r0xe92ja446/sc/cae_h264/1637775035132431598/mda-mkpi5r0xe92ja446.mp4
七星酒吧舞曲,https://vd2.bdstatic.com/mda-mkq4p7459ade8936/sc/cae_h264/1637813773613914093/mda-mkq4p7459ade8936.mp4
情歌DJ合集,https://vd4.bdstatic.com/mda-mkp3tpu9ghk2ufev/sc/cae_h264/1637733480141753790/mda-mkp3tpu9ghk2ufev.mp4
四海舞曲dj,https://vd2.bdstatic.com/mda-mkp6w1tjw8mz9kpx/sc/cae_h264/1637731815454834601/mda-mkp6w1tjw8mz9kpx.mp4
新世纪舞曲,https://vd4.bdstatic.com/mda-mkq704rtr59i9jtj/sc/cae_h264/1637823373696903055/mda-mkq704rtr59i9jtj.mp4
dj舞曲交流,https://vd2.bdstatic.com/mda-majhhns1q3ggkdi6/v1-cae/sc/mda-majhhns1q3ggkdi6.mp4
干就完了,https://vd3.bdstatic.com/mda-mkpd6xzxe91etw8c/sc/cae_h264/1637766099902911413/mda-mkpd6xzxe91etw8c.mp4
干就完了,https://alimov2.a.kwimgs.com/upic/2022/06/22/06/BMjAyMjA2MjIwNjA4MTRfOTU2MzA3MDg4Xzc3MzI3NDE3NDcwXzJfMw==_b_Ba3d3b997963c87f32f06458d9acd0254.mp4?clientCacheKey=3x2ezqbaqf8qs3s_b.mp4&tt=b&di=24710b6c&bp=10000
金典老歌合集dj,https://vd3.bdstatic.com/mda-mkq6zqsvfa164i4i/sc/cae_h264/1637829051855604521/mda-mkq6zqsvfa164i4i.mp4
学生dj舞曲,https://vd2.bdstatic.com/mda-mkncvdu8w51mdbqw/sc/cae_h264/1637659554429325643/mda-mkncvdu8w51mdbqw.mp4
日韩舞曲DJ,https://vd4.bdstatic.com/mda-mknatf58h2evy18i/sc/cae_h264/1637653930525484478/mda-mknatf58h2evy18i.mp4
国际舞曲,https://vd4.bdstatic.com/mda-mkpde77et4yvqx7e/sc/cae_h264/1637766610977026004/mda-mkpde77et4yvqx7e.mp4
dj舞曲合集,https://vd2.bdstatic.com/mda-mkmeak5hsf7hmguz/sc/cae_h264/1637579072201459045/mda-mkmeak5hsf7hmguz.mp4
dj舞曲金典,https://vd2.bdstatic.com/mda-mkk0g8x89nnx62tm/sc/cae_h264/1637456174213928981/mda-mkk0g8x89nnx62tm.mp4
车载DJ舞曲,https://vdse.bdstatic.com//7002925e04c4c451cfa8aafc9b4190c7.mp4
七首DJ情歌,https://vdse.bdstatic.com//ed10354ac1acc37c9922074fd88d3697.mp4
2021最佳伤感情歌,https://vdse.bdstatic.com//59c5abc138bf1da5585bb765c530137e.mp4
2021伤感洗脑神曲,https://vdse.bdstatic.com//8ad29ca92a901b9992431cf0c5266101.mp4
2021最好听情歌,https://vdse.bdstatic.com//e668900af1d683c1f8762c1184d516d3.mp4
震撼纯电音Drown,https://vd2.bdstatic.com/mda-mjshcpd847mhnjgj/sc/cae_h264/1635337200637124885/mda-mjshcpd847mhnjgj.mp4
抖音神曲20首,https://vd3.bdstatic.com/mda-kegey3zg2hx7f0t6/sc/mda-kegey3zg2hx7f0t6.mp4
送给未来的你,https://vd2.bdstatic.com/mda-ma0st3ncw6i2yerr/v1-cae/sc/mda-ma0st3ncw6i2yerr.mp4
DJ最美不过你的微笑,https://vd4.bdstatic.com/mda-mhs2qjdmkjz2rb7g/sc/cae_h264/1630029534870787600/mda-mhs2qjdmkjz2rb7g.mp4
DJ流浪兄弟,https://vd2.bdstatic.com/mda-mhrdtax1km0idkc5/1080p/cae_h264/1629972852606533219/mda-mhrdtax1km0idkc5.mp4
红尘只是个过客,https://vd2.bdstatic.com/mda-mhq68s6g444n437t/hd/cae_h264/1629865742325435508/mda-mhq68s6g444n437t.mp4
经典老歌DJ舞曲七首,https://vd2.bdstatic.com/mda-mhwbtsnrmm6v6x5r/sc/cae_h264/1630403250895754314/mda-mhwbtsnrmm6v6x5r.mp4
忘记你需要多久(DJ小鱼儿版),https://vd2.bdstatic.com/mda-mc1sm1r5s9azchjv/v1-cae/1080p/mda-mc1sm1r5s9azchjv.mp4
2021年最好听的DJ串烧,https://vdse.bdstatic.com//cd396057d1fbcb12f0600d38a16effbc.mp4
2021年最火伤感音乐,https://vdse.bdstatic.com//6d39df48360bdb12f73800397c4a6c02.mp4
2021热门伤感DJ,https://vdse.bdstatic.com//06b4e9b185b843e694e4d20e9b0a0aac.mp4
几首比较火的DJ情歌,https://vdse.bdstatic.com//4d7e8fe409b2ba9e08b179de8e146fa3.mp4
经典老歌DJ版精选六首,https://vdse.bdstatic.com//f203048340fe15016fbec9a72905680d.mp4
夜店DJ,https://vd3.bdstatic.com/mda-keijdsupmpiv0pbm/hd/mda-keijdsupmpiv0pbm.mp4
串烧DJ,https://vdse.bdstatic.com//0da62389c4eb7668570f9d0c78eedfee.mp4
串烧,https://vd4.bdstatic.com/mda-mkn4iq79ihtufbc1/sc/cae_h264/1637639849265611965/mda-mkn4iq79ihtufbc1.mp4
欧美动感歌曲2,https://15799848.s21v.faiusr.com/58/ABUIABA6GAAgpdia4gUo7oWfiAE.mp4Girls Gone Wild,https://15799848.s21v.faiusr.com/58/ABUIABA6GAAgjd2w4gUou--ljQE.mp4
上下(中文版),https://15799848.s21v.faiusr.com/58/ABUIABA6GAAgtd6M9QUokpHf7AY.mp4
最新伤感5首歌,https://vd4.bdstatic.com/mda-mmm51m2ep4vqhhst/480p/h264/1640146053815826024/mda-mmm51m2ep4vqhhst.mp4
车载DJ舞曲精选,https://vd3.bdstatic.com/mda-mktgbuw1tgftu9r3/1080p/cae_h264/1638416019802849347/mda-mktgbuw1tgftu9r3.mp4
音乐520,https://vdse.bdstatic.com//7b2f1b020851df0037ed7b5013a8887d.mp4
网络情歌精选DJ,https://vd3.bdstatic.com/mda-mm1eqirhmt0293u0/480p/h264/1638443831616522299/mda-mm1eqirhmt0293u0.mp4
超强车载重音乐,https://vdse.bdstatic.com//be2987198eb242f59daaea05ac1d95ee.mp4
5首绝美情歌,https://vd3.bdstatic.com/mda-mjtb7bbvk98u8z58/480p/h264/1635409459813822543/mda-mjtb7bbvk98u8z58.mp4
蹦迪DJ,https://vdse.bdstatic.com//e94b56d691d790f43b6dad9969c98af9.mp4
10首车载dj,https://vd3.bdstatic.com/mda-nbhgwre9iykh09ya/hd/cae_h264_delogo/1645187028018958500/mda-nbhgwre9iykh09ya.mp4
DJ歌曲多想抱抱,https://vd4.bdstatic.com/mda-nc8hy0n0zmv8p9jr/480p/h264_delogo/1646829628996348347/mda-nc8hy0n0zmv8p9jr.mp4
野花香dj,https://vd3.bdstatic.com/mda-mm68k5z0h1qjm8n0/sc/cae_h264/1638980550463660240/mda-mm68k5z0h1qjm8n0.mp4
精选dj,https://vd3.bdstatic.com/mda-mm68drt808w1nins/720p/h264/1638861890075163680/mda-mm68drt808w1nins.mp4
伤感情歌DJ,https://vd3.bdstatic.com/mda-mkv7idcnxrgc3cnd/sc/cae_h264/1638257251905732477/mda-mkv7idcnxrgc3cnd.mp4
DJ情歌,https://vd2.bdstatic.com/mda-mm67ychk60q5n0d1/sc/cae_h264/1638893384360470440/mda-mm67ychk60q5n0d1.mp4
网络金曲,https://vdse.bdstatic.com//c2deba4d320384736569e542ac531aff.mp4
情歌DJ,https://vdse.bdstatic.com//4eece717c6cc2fb9086a59a13ce30623.mp4
dj舞曲英雄泪,https://vd3.bdstatic.com/mda-mkt45tnypacz3smk/sc/cae_h264/1638069225501294830/mda-mkt45tnypacz3smk.mp4
舞曲视频,https://vd2.bdstatic.com/mda-mm25g3080p08di8w/sc/cae_h264/1638529553032232968/mda-mm25g3080p08di8w.mp4
今夜回望dj,https://vd2.bdstatic.com/mda-mkv7cbzq5xdtf9ms/sc/cae_h264/1638478442002383579/mda-mkv7cbzq5xdtf9ms.mp4
舞曲视频1,https://vd4.bdstatic.com/mda-mkf4g5p5hpevqbx6/sc/cae_h264/1637033781127837401/mda-mkf4g5p5hpevqbx6.mp4
舞曲视频3,https://vd3.bdstatic.com/mda-mkmee6e6z4rq6zy7/sc/cae_h264/1637580756649466839/mda-mkmee6e6z4rq6zy7.mp4
舞曲视频4,https://vd2.bdstatic.com/mda-mkn56h2g8ux3dtxq/sc/cae_h264/1637642599802363137/mda-mkn56h2g8ux3dtxq.mp4
车载DJ视频6,https://vdse.bdstatic.com//7e9d2da860d4ac39c0ea86502360d6fe.mp4
伤感DJ串烧为爱流泪,https://vd3.bdstatic.com/mda-nci8jqpzeyqkhdxe/720p/h264_delogo/1647670097763149460/mda-nci8jqpzeyqkhdxe.mp4
伤心的眼泪,https://vd3.bdstatic.com/mda-ncn2c816zrf6u0im/sc/cae_h264_delogo/1648002300550722369/mda-ncn2c816zrf6u0im.mp4
2022几首DJ串烧,https://vd3.bdstatic.com/mda-nck3tqzgjvj076vc/sc/cae_h264_delogo/1647833645083560959/mda-nck3tqzgjvj076vc.mp4
🇨🇳 DJ 2012 ,#genre#
MTV 大风吹,http://vdown2.kuwo.cn/resource//t5/0/eTNBMFltlx07LI3bUVOg01041201VIsY0E010.mp4
DJ《心在跳情在烧》,https://vd4.bdstatic.com/mda-mhwf07t27w3gi1y7/1080p/cae_h264/1630406994590156367/mda-mhwf07t27w3gi1y7.mp4
郭镐鸣《野摩托》,https://vd3.bdstatic.com/mda-mekfm7wu6f4rtt99/1080p/cae_h264/1621595318412084671/mda-mekfm7wu6f4rtt99.mp4
叶筱萱《爱到最后是孤独》,https://vd4.bdstatic.com/mda-mh9fjm2j86uyymfa/1080p/cae_h264/1628593607912074882/mda-mh9fjm2j86uyymfa.mp4
海来阿木《浪子心》,https://vd3.bdstatic.com/mda-mgr9s5pv0jeqbcm8/1080p/cae_h264/1627298307874491239/mda-mgr9s5pv0jeqbcm8.mp4
DJ版《三月里的小雨》,https://vd2.bdstatic.com/mda-mgwegh0bzv4cy6cb/1080p/cae_h264/1627727251470197083/mda-mgwegh0bzv4cy6cb.mp4
DJ版《望爱却步》,https://vd4.bdstatic.com/mda-mh3ei4sg2jypty79/1080p/cae_h264/1628072927342489970/mda-mh3ei4sg2jypty79.mp4
《唱着情歌流着泪》,https://vd3.bdstatic.com/mda-mhwaejanf0ie6b8j/1080p/cae_h264/1630409563129833732/mda-mhwaejanf0ie6b8j.mp4
《爱你到最后一刻》,https://vd3.bdstatic.com/mda-mhr9c7q9xzgy1812/1080p/cae_h264/1630062648077583523/mda-mhr9c7q9xzgy1812.mp4
伤感DJ《等》,https://vd2.bdstatic.com/mda-mhq92a7nafrh8dma/1080p/cae_h264/1629977686796490849/mda-mhq92a7nafrh8dma.mp4
DJ《我们不再是从前》,https://vd2.bdstatic.com/mda-mhne550wq5m66zvj/1080p/cae_h264/1629803514331462220/mda-mhne550wq5m66zvj.mp4
DJ舞曲《让我做你的眼睛》,https://vd2.bdstatic.com/mda-mhaargrart2qrkdz/1080p/cae_h264/1629630942996744682/mda-mhaargrart2qrkdz.mp4
DJ版《时间会知道你好不好》,https://vd3.bdstatic.com/mda-mhairve7gvye1192/1080p/cae_h264/1629457148988604256/mda-mhairve7gvye1192.mp4
DJ版《爱不得忘不舍》,https://vd3.bdstatic.com/mda-mh8j8egnj8idbvd8/1080p/cae_h264/1629367979662473678/mda-mh8j8egnj8idbvd8.mp4
DJ版《蜜雪冰城》,https://vd3.bdstatic.com/mda-mhbae2pwwxhyxjcz/1080p/cae_h264/1628767594518574030/mda-mhbae2pwwxhyxjcz.mp4
《无味》DJ版,https://vd3.bdstatic.com/mda-mgqiagirsmmpuarm/1080p/cae_h264/1627218846577884242/mda-mgqiagirsmmpuarm.mp4
DJ版《原谅你的谎》,https://vd4.bdstatic.com/mda-mhacxx5vhr2we882/1080p/cae_h264/1628673933350116053/mda-mhacxx5vhr2we882.mp4
DJ《等爱》,https://vd2.bdstatic.com/mda-mfhh1e0hwq212rrt/sc/h264/1623988905898256147/mda-mfhh1e0hwq212rrt.mp4
DJ《醉过多少回》,https://vd4.bdstatic.com/mda-megp46e98a4f2b9g/sc/h264/1621239560364992817/mda-megp46e98a4f2b9g.mp4
DJ情歌《爱情迷了路》,https://vd4.bdstatic.com/mda-mdbrb7fns70avrmt/1080p/cae_h264/1618222287/mda-mdbrb7fns70avrmt.mp4
车载DJ《多年以后》,https://vd3.bdstatic.com/mda-mhqekuegbh6112js/1080p/cae_h264/1629891559415737083/mda-mhqekuegbh6112js.mp4
韩+《错位时空》DJ版,https://vd3.bdstatic.com/mda-mgciytzb45z6z8yj/1080p/cae_h264/1626183756603775947/mda-mgciytzb45z6z8yj.mp4
车载DJ《今夜为你醉...》,https://vdse.bdstatic.com//b68123a666cce39e7413da912e3675a3.mp4
抖音热歌《大风吹+夜夜夜漫长》,https://vdse.bdstatic.com//13da18e12728e9d7849f6589a3070b4c.mp4
《爱难求情难断…》,https://vdse.bdstatic.com//0c8ed110c5522e9bd31752ecb999b1ab.mp4
【经典老歌】DJ《精选8首》,https://vdse.bdstatic.com//200ab148a9e867ad29f5fda4ac175305.mp4
【老歌DJ版】《精选8首》,https://vdse.bdstatic.com//525174705415c8773bd465ce4b88b18d.mp4
2021《精选5首酒吧DJ舞曲》,https://vdse.bdstatic.com//0e59c29ddbc68ed60dce8a6f4631c1f1.mp4
朴孝敏 –SKETCH,https://15799848.s21v.faiusr.com/58/ABUIABA6GAAguq6r7gUouOyF4gE.mp4
动感歌曲1好歌分享《精选6首伤感DJ舞曲》,https://vdse.bdstatic.com//0c87c8977d0a33498fe7362d3c60c22c.mp4
《拈花一笑》《对面的小姐姐》,https://vdse.bdstatic.com//7cfaf27a4db89583e069a40fbc2ed84b.mp4
一点泪水dj,https://vd2.bdstatic.com/mda-mm52zzkus5fqm4xh/sc/cae_h264/1638783595083455661/mda-mm52zzkus5fqm4xh.mp4
DJ情歌串烧《痴情恋歌》,https://vdse.bdstatic.com//904548e7bec804905906557ed2752017.mp4
动听DJ情歌《红颜知己》,https://vdse.bdstatic.com//92d49c2aebc0bbbe08149b8e08e4a443.mp4
DJ伤感好听《红颜知己,https://vdse.bdstatic.com//1a7b05ab4eab2d68a679e442f4d80fab.mp4《英雄泪》,https://vd3.bdstatic.com/mda-ncnp6tm56ngrxbis/360p/h264_delogo/1648055585617071282/mda-ncnp6tm56ngrxbis.mp4
韩国动感舞曲1,https://15799848.s21v.faiusr.com/58/ABUIABA6GAAgr-2n9AUoqsakNg.mp4
韩国动感舞曲2,https://15799848.s21v.faiusr.com/58/ABUIABA6GAAgz-qc4gUo4vj-tQY.mp4
澳门酒吧音乐DJ,https://vd3.bdstatic.com/mda-mkpi5r0xe92ja446/480p/h264/1637759253085791346/mda-mkpi5r0xe92ja446.mp4
心在跳情在烧。,https://alimov2.a.kwimgs.com/upic/2022/07/23/05/BMjAyMjA3MjMwNTEwMDZfOTU2MzA3MDg4Xzc5ODg3NTQ0MTE4XzJfMw==_b_B88a6b639a9d60d490656e6508f8568c2.mp4?clientCacheKey=3xcsxyvzjaez5da_b.mp4&tt=b&di=24710b75&bp=10000
DJ秒针,https://txmov2.a.kwimgs.com/upic/2022/07/21/07/BMjAyMjA3MjEwNzAyNTBfOTU2MzA3MDg4Xzc5NzIxNDMzMTcxXzJfMw==_b_B666ff3cf77d82a485c48b6254b259319.mp4?clientCacheKey=3xjsnx48968xk6c_b.mp4&tt=b&di=24710b75&bp=10000
夜太深、,https://txmov2.a.kwimgs.com/upic/2022/06/16/06/BMjAyMjA2MTYwNjM1MTJfOTU2MzA3MDg4Xzc2ODY5MTYzMjM5XzJfMw==_b_B01d61e72177b836733addc0d035000d5.mp4?clientCacheKey=3xzd2snu38qqjxu_b.mp4&tt=b&di=24710b6c&bp=10000
踩踩,https://txmov2.a.kwimgs.com/upic/2022/06/15/06/BMjAyMjA2MTUwNjMxMzFfOTU2MzA3MDg4Xzc2ODAxNzc2MzM2XzJfMw==_b_Bca2640c12d0c349843902b9b15836429.mp4?clientCacheKey=3xmcmgg52jhqrfg_b.mp4&tt=b&di=24710b6c&bp=10000
你能不能不要离开我,https://alimov2.a.kwimgs.com/upic/2022/05/29/08/BMjAyMjA1MjkwODAwMTVfOTU2MzA3MDg4Xzc1NDk5Mjk3NTI1XzJfMw==_b_Bc5ee9048e78ac7fdf1132decfec7cdeb.mp4?clientCacheKey=3x35ybkdha6s8k4_b.mp4&tt=b&di=2471804b&bp=10000
爆红6首女生版伤感DJ》,https://vdse.bdstatic.com//2e77709380ad7e6163e80c4d5c179689.mp4
火爆女生版伤感DJ情歌,https://vdse.bdstatic.com//8fe197e92568201d4899dfd3d94585a7.mp4
年网络火爆伤感情歌6首,https://vdse.bdstatic.com//80e0473f97055cec1c9c76c1c7e5498a.mp4
五首女声伤感DJ情歌精品,https://vdse.bdstatic.com//c92e81328ef6d13ba7d44e6eb80f9f1e.mp4
5首伤感情歌DJ,https://vdse.bdstatic.com//a34f76474b9bdfca8c487761861fb603.mp4dj,https://txmov2.a.kwimgs.com/upic/2022/03/21/19/BMjAyMjAzMjExOTA2MjRfMjYyNzI4Mjc4MV83MDE2MTEwMjY1Ml8yXzM=_b_B977559109a6b2bec30b01e11d458d398.mp4
DJ劲爆舞曲在我心里有个你,https://vdse.bdstatic.com//8343b02f5e7465d4c5b07e54403438b8.mp4
DJ情歌心上的人儿你在哪,https://vdse.bdstatic.com//09b76fc9762763350288fb96047ec820.mp4
skart短裙,https://15799848.s21v.faiusr.com/58/ABUIABA6GAAggoG24gUouOfNkAM.mp4
StickySticky,https://15799848.s21v.faiusr.com/58/ABUIABA6GAAgnIS24gUoptqYDQ.mp4
TroubleMaker,https://15799848.s21v.faiusr.com/58/ABUIABA6GAAg2fWv4gUo9JT7DQ.mp4
TroubleMakerNow,https://15799848.s21v.faiusr.com/58/ABUIABA6GAAgvue_4gUomZa1kQU.mp4
闽南摇,https://txmov2.a.kwimgs.com/upic/2022/05/31/06/BMjAyMjA1MzEwNjM5MzZfOTU2MzA3MDg4Xzc1NjQ4MzUwNjUxXzJfMw==_b_B86c40d8b4cb80db03598c2196ea1a156.mp4?clientCacheKey=3xukgb5ej6wwb2g_b.mp4&tt=b&di=24717162&bp=10000
电影轮播,#genre#
吃米滴虫,http://159.75.85.63:35455/douyu/315457
吃米滴虫,http://43.138.170.29:35455/douyu/315457
喜剧电影,http://159.75.85.63:35455/douyu/9292492
喜剧电影,http://43.138.170.29:35455/douyu/9292492
译制国语,http://159.75.85.63:35455/douyu/2436390
译制国语,http://43.138.170.29:35455/douyu/2436390
恐怖故事,http://43.138.170.29:35455/douyu/2337939科幻动作,http://43.138.170.29:35455/douyu/4332
怡寳影院,http://43.138.170.29:35455/douyu/434971
粤语电影,http://43.138.170.29:35455/douyu/6566671
苹果影院,http://43.138.170.29:35455/douyu/2793084
午夜故事,http://43.138.170.29:35455/douyu/8722254
贝爷求生,http://43.138.170.29:35455/douyu/454867
恐怖丧尸鬼片,http://43.138.170.29:35455/douyu/263824
荒野建造者,http://43.138.170.29:35455/douyu/9611578
邦德影院,http://43.138.170.29:35455/douyu/9292499
特辑影院,http://43.138.170.29:35455/douyu/3637778
惊悚影院,http://43.138.170.29:35455/douyu/96577
漫威影片,http://43.138.170.29:35455/douyu/6140589
刘德华电影1,http://43.138.170.29:35455/douyu/2516864
豆瓣高分,http://43.138.170.29:35455/douyu/8770422
林正英电影2,http://43.138.170.29:35455/douyu/7356023
宇哥电影,http://43.138.170.29:35455/douyu/413573
贝爷影厅2,http://43.138.170.29:35455/douyu/36337
霍格影片,http://43.138.170.29:35455/douyu/8814650
冰冰经典电影,http://43.138.170.29:35455/douyu/74374
避风港影院,http://43.138.170.29:35455/douyu/9826611
恐怖经典,http://43.138.170.29:35455/douyu/1165374
华语电影,http://43.138.170.29:35455/douyu/3928
深海,https://vip1.lz-cdn1.com/20230324/20760_c088369d/1800k/hls/mixed.m3u8
深海,https://vip1.lz-cdn1.com/20230324/20760_c088369d/index.m3u8
一起看恐怖片,http://43.138.170.29:35455/douyu/9412287
片荒的日子,http://43.138.170.29:35455/douyu/4258555
大胡子魏,http://43.138.170.29:35455/douyu/8792763
童年回忆,http://43.138.170.29:35455/douyu/8915074
下饭神剧,http://43.138.170.29:35455/douyu/276200
悬疑犯罪,http://43.138.170.29:35455/douyu/9171887
不一样的电影,http://43.138.170.29:35455/douyu/2632223
开心锤锤,http://43.138.170.29:35455/douyu/9018297
凛冬之地,http://43.138.170.29:35455/douyu/8945323
看美剧,http://43.138.170.29:35455/douyu/8869614
动漫直播,http://43.138.170.29:35455/douyu/1487654
冰冰经典,http://159.75.85.63:35455/douyu/74374
星爷影院,http://159.75.85.63:35455/douyu/508118
凌儿影院,http://159.75.85.63:35455/douyu/1377142
麓山迷踪,http://159.75.85.63:35455/douyu/4505431
瑶瑶恐怖,http://159.75.85.63:35455/douyu/2935323
怡寶影原,http://159.75.85.63:35455/douyu/434971
小黛兮影,http://159.75.85.63:35455/douyu/11553944
萌小鬼片,http://159.75.85.63:35455/douyu/3928
神乐剧场,https://tc-tc2-interact.douyucdn2.cn/dyliveflv1/85894rmovieChow_900p.m3u8
神乐剧院,https://tc-tc2-interact.douyucdn2.cn/dyliveflv1a/122402rK7MO9bXSq_900.m3u8
神乐影剧,http://159.75.85.63:35455/douyu/122402
可乐影院,http://159.75.85.63:35455/douyu/20415
小宇60帧,http://159.75.85.63:35455/douyu/323876
恐怖惊悚,http://159.75.85.63:35455/douyu/96577
電影劇場,http://159.75.85.63:35455/douyu/7575350
漫威剧情,http://159.75.85.63:35455/douyu/6140589
霍格沃茨,http://159.75.85.63:35455/douyu/8814650
鱼宝恐怖,http://159.75.85.63:35455/douyu/1165374
小u*鬼片,http://mmitv.top/test/douyu.php?id=96577&u=4150734&cate
吃奶滴虫,http://159.75.85.63:35455/douyu/263824
变种人片,http://159.75.85.63:35455/douyu/9651304
女神电影,http://159.75.85.63:35455/douyu/747764
避风影院,http://159.75.85.63:35455/douyu/9826611
贝爷max,http://159.75.85.63:35455/douyu/4332
贝爷影厅,http://159.75.85.63:35455/douyu/252802
刘德华,http://43.138.170.29:35455/yy/1382745111
周星驰,http://43.138.170.29:35455/yy/1354658049
周星驰,http://43.138.170.29:35455/yy/1382736808
周润发,http://43.138.170.29:35455/yy/1354888733
周润发,http://43.138.170.29:35455/yy/1354889044
林正英,http://43.138.170.29:35455/yy/1353685311
林正英,http://43.138.170.29:35455/yy/34229877
林正英,http://43.138.170.29:35455/yy/1453996620
林正英,http://43.138.170.29:35455/yy/1354932444
李连杰,http://43.138.170.29:35455/yy/74613175
洪金宝,http://43.138.170.29:35455/yy/1354924839
香港电影,http://43.138.170.29:35455/yy/1382736910
经典电影,http://43.138.170.29:35455/yy/1450556636
电影2,http://43.138.170.29:35455/yy/1354889048
经典鬼片,http://43.138.170.29:35455/yy/1463783198
经典鬼片,http://43.138.170.29:35455/yy/29460894
香港鬼片2,http://43.138.170.29:35455/yy/1382737886
香港鬼片3,http://43.138.170.29:35455/yy/24066336
港片电影,http://43.138.170.29:35455/yy/1459801818
超英集结,http://43.138.170.29:35455/yy/1382745091
漫威英雄,http://43.138.170.29:35455/yy/1354932402
港片赌片,http://43.138.170.29:35455/yy/1355076627
惊恐盗暮鬼怪,http://43.138.170.29:35455/yy/1382749525
张国荣,http://43.138.170.29:35455/yy/1354930961
哥斯拉,http://43.138.170.29:35455/yy/1382736833
大话西游,http://43.138.170.29:35455/yy/1382851590
经典鬼片2,http://43.138.170.29:35455/yy/1355641195
武侠港片,http://43.138.170.29:35455/yy/1451866697
📡广播频道,#genre#
环球资讯,http://sk.cri.cn/905.m3u8
经典音乐,http://ngcdn004.cnr.cn/live/dszs/index.m3u8
北京音乐广播,http://live.xmcdn.com/live/95/64.m3u8
上海动感101,http://ls.qingting.fm/live/274.m3u8
清晨音乐台,http://live.xmcdn.com:80/live/1011/64.m3u8
怀集音乐台,http://live.xmcdn.com:80/live/966/64.m3u8
高清音乐台,http://live.xmcdn.com:80/live/1427/64.m3u8
老歌音乐台,http://live.xmcdn.com:80/live/2628/64.m3u8
亚洲经典音乐台,http://live.xmcdn.com:80/live/1005/64.m3u8
厦门音乐广播,http://ls.qingting.fm/live/1739.m3u8
浙江动听,http://ls.qingting.fm/live/4866.m3u8
广东音乐广播,http://ls.qingting.fm/live/1260.m3u8
深圳飞扬音乐台,http://ls.qingting.fm/live/1271.m3u8
音乐之声,http://ngcdn003.cnr.cn/live/yyzs/index.m3u8
华语金曲500首,http://ls.qingting.fm/live/3412131.m3u8